{
    "$schema": "http://json-schema.org/draft-07/schema",
    "$id": "https://risknow.ai/common/estate-financing",
    "type": "object",
    "title": "The Estate Financing Schema",
    "description": "Estate Financing Schema",
    "examples": [
        {
            "estate_financing_type_id": 0,
            "bank_id": 0,
            "name": "estate financing name",
            "code": "xpto",
            "value": 1000.09,
            "tax": 1.2,
            "term": 1.2,
            "cov_ratio": 3.3,
            "liquidity_index": 1.2
        }
    ],
    "properties": {
        "estate_financing_type_id": {
            "$id": "#/properties/estate_financing_type_id",
            "type": "integer",
            "title": "estate_financing_type_id",
            "description": "Unique identifier of estate financing type",
            "examples": [
                0,
                1
            ]
        },
        "bank_id": {
            "$id": "#/properties/bank_id",
            "type": "integer",
            "title": "bank_id",
            "description": "Unique identifier of bank",
            "examples": [
                0,
                1
            ]
        },
        "code": {
            "$id": "#/properties/code",
            "type": "string",
            "title": "Estate financing Code",
            "description": "Unique identifier of estate financing",
            "examples": [
                "01C",
                "01F"
            ]
        },
        "name": {
            "$id": "#/properties/name",
            "type": "string",
            "title": "Estate name",
            "description": "estate name",
            "examples": [
                "estate x",
                "estate y"
            ]
        },
        "value": {
            "$id": "#/properties/value",
            "type": "number",
            "title": "value",
            "description": "estate finanincing value",
            "examples": [
                20000,
                300000.2
            ]
        },
        "term": {
            "$id": "#/properties/term",
            "type": "number",
            "title": "term",
            "description": "estate finanincing term",
            "examples": [
                2,
                3.2
            ]
        },
        "tax": {
            "$id": "#/properties/tax",
            "type": "number",
            "title": "tax",
            "description": "estate finanincing tax",
            "examples": [
                2,
                3.2
            ]
        },
        "cov_ratio": {
            "$id": "#/properties/cov_ratio",
            "type": "number",
            "title": "cov_ratio",
            "description": "estate finanincing cov_ratio",
            "examples": [
                2,
                3.2
            ]
        },
        "liquidity_index": {
            "$id": "#/properties/liquidity_index",
            "type": "number",
            "title": "liquidity_index",
            "description": "estate finanincing liquidity_index",
            "examples": [
                2,
                3.2
            ]
        }
    }
}