{
  "$schema": "http://json-schema.org/draft-07/schema",
  "$id": "https://risknow.ai/common/estate/index.json",
  "type": "object",
  "title": "The Estate Schema",
  "description": "Estate Schema",
  "examples": [
    {
      "address_id": 0,
      "address": {},
      "company_id": 0,
      "estate_financing_id": 0,
      "estate_financing": {},
      "estate_type_id": 0,
      "estate_type": {},
      "code": "xpto",
      "eni": "12.345.678/9101-11",
      "is_avulso": true,
      "is_mcmv": true,
      "name": "company test",
      "source": "api",
      "units": 3,
      "vgv": 1000.09
    }
  ],
  "required": [
    "code",
    "name",
    "estate_schedule_code",
    "estate_typology_code"
  ],
  "properties": {
    "estate_schedule_code": {
      "$id": "#/properties/estate_schedule_code",
      "type": "string",
      "title": "Estate Schedule Code",
      "description": "Unique identifier of estate step",
      "examples": [
        "01C",
        "01F"
      ],
      "$ref": "https://gitlab.com/RiskNow/test/-/raw/master/schemas/v2/etl/mapping/column_property.json"
    },
    "estate_typology_code": {
      "$id": "#/properties/estate_typology_code",
      "type": "string",
      "title": "Estate Typology Code",
      "description": "Unique identifier of estate typology",
      "examples": [
        "urbanismo",
        "residencial"
      ],
      "$ref": "https://gitlab.com/RiskNow/test/-/raw/master/schemas/v2/etl/mapping/column_property.json"
    },
    "address_id": {
      "$id": "#/properties/address_id",
      "type": "integer",
      "title": "address_id",
      "description": "Unique identifier of address",
      "examples": [
        0,
        1
      ],
      "$ref": "https://gitlab.com/RiskNow/test/-/raw/master/schemas/v2/etl/mapping/column_property.json"
    },
    "company_id": {
      "$id": "#/properties/company_id",
      "type": "integer",
      "title": "company_id",
      "description": "Unique identifier of company",
      "examples": [
        0,
        1
      ],
      "$ref": "https://gitlab.com/RiskNow/test/-/raw/master/schemas/v2/etl/mapping/column_property.json"
    },
    "estate_financing_id": {
      "$id": "#/properties/estate_financing_id",
      "type": "integer",
      "title": "estate_financing_id",
      "description": "Unique identifier of estate financing",
      "examples": [
        0,
        1
      ],
      "$ref": "https://gitlab.com/RiskNow/test/-/raw/master/schemas/v2/etl/mapping/column_property.json"
    },
    "estate_type_id": {
      "$id": "#/properties/estate_type_id",
      "type": "integer",
      "title": "estate_type_id",
      "description": "Unique identifier of estate type",
      "examples": [
        0,
        1
      ],
      "$ref": "https://gitlab.com/RiskNow/test/-/raw/master/schemas/v2/etl/mapping/column_property.json"
    },
    "code": {
      "$id": "#/properties/code",
      "type": "string",
      "title": "Estate Code",
      "description": "Unique identifier of estate step",
      "examples": [
        "01C",
        "01F"
      ],
      "$ref": "https://gitlab.com/RiskNow/test/-/raw/master/schemas/v2/etl/mapping/column_property.json"
    },
    "eni": {
      "$id": "#/properties/eni",
      "type": "string",
      "title": "Estate eni",
      "description": "estate eni",
      "examples": [
        "12.345.678/9101-11"
      ],
      "$ref": "https://gitlab.com/RiskNow/test/-/raw/master/schemas/v2/etl/mapping/column_property.json"
    },
    "is_avulso": {
      "$id": "#/properties/is_avulso",
      "type": "boolean",
      "title": "is_avulso",
      "description": "estate is avulso",
      "examples": [
        true,
        false
      ],
      "$ref": "https://gitlab.com/RiskNow/test/-/raw/master/schemas/v2/etl/mapping/column_property.json"
    },
    "is_mcmv": {
      "$id": "#/properties/is_mcmv",
      "type": "boolean",
      "title": "is_mcmv",
      "description": "Estate is mcmv",
      "examples": [
        true,
        false
      ],
      "$ref": "https://gitlab.com/RiskNow/test/-/raw/master/schemas/v2/etl/mapping/column_property.json"
    },
    "name": {
      "$id": "#/properties/name",
      "type": "string",
      "title": "Estate name",
      "description": "estate name",
      "examples": [
        "estate x",
        "estate y"
      ],
      "$ref": "https://gitlab.com/RiskNow/test/-/raw/master/schemas/v2/etl/mapping/column_property.json"
    },
    "source": {
      "$id": "#/properties/source",
      "type": "string",
      "title": "Estate data source",
      "description": "Estate data source",
      "examples": [
        "api",
        "anywhere"
      ],
      "$ref": "https://gitlab.com/RiskNow/test/-/raw/master/schemas/v2/etl/mapping/column_property.json"
    },
    "units": {
      "$id": "#/properties/units",
      "type": "integer",
      "title": "Estate unit quantity",
      "description": "Estate unit quantity",
      "examples": [
        1,
        2
      ],
      "$ref": "https://gitlab.com/RiskNow/test/-/raw/master/schemas/v2/etl/mapping/column_property.json"
    },
    "vgv": {
      "$id": "#/properties/vgv",
      "type": "number",
      "title": "Estate vgv",
      "description": "vgv",
      "examples": [
        20000,
        300000.2
      ],
      "$ref": "https://gitlab.com/RiskNow/test/-/raw/master/schemas/v2/etl/mapping/column_property.json"
    }
  },
  "additionalProperties": true
}