{
  "$schema": "http://json-schema.org/draft-07/schema",
  "$id": "https://risknow.ai/common/person.json",
  "type": "object",
  "title": "The root schema",
  "description": "The root schema comprises the entire JSON document.",
  "default": {},
  "examples": [
    {
      "birth_city": "São Paulo",
      "birth_country": "Brasil",
      "code": "001",
      "cpf": 0,
      "date_birth": "1900-01-01",
      "email": "fake@email.com",
      "full_name": "Fake Person",
      "has_document": true,
      "is_politically_exposed": false,
      "last_name": "Person",
      "middle_name": "",
      "phone_number": "(00) 00 00000-0000",
      "address": {},
      "address_id": 0,
      "bank_account": {},
      "bank_account_id": 0
    }
  ],
  "required": [
    "cpf",
    "full_name"
  ],
  "properties": {
    "birth_city": {
      "$id": "#/properties/birth_city",
      "type": "string",
      "title": "The birth_city schema",
      "description": "Person birth city",
      "default": "",
      "examples": [
        "São Paulo"
      ],
      "$ref": "https://gitlab.com/RiskNow/test/-/raw/master/schemas/v2/etl/mapping/column_property.json"
    },
    "birth_country": {
      "$id": "#/properties/birth_country",
      "type": "string",
      "title": "The birth_country schema",
      "description": "Person birth country",
      "default": "",
      "examples": [
        "Brasil"
      ],
      "$ref": "https://gitlab.com/RiskNow/test/-/raw/master/schemas/v2/etl/mapping/column_property.json"
    },
    "code": {
      "$id": "#/properties/code",
      "type": "string",
      "title": "The code schema",
      "description": "Person code",
      "default": "",
      "examples": [
        "001"
      ],
      "$ref": "https://gitlab.com/RiskNow/test/-/raw/master/schemas/v2/etl/mapping/column_property.json"
    },
    "cpf": {
      "$id": "#/properties/cpf",
      "type": "string",
      "title": "The cpf schema",
      "description": "Person CPF",
      "default": "",
      "examples": [
        0
      ],
      "$ref": "https://gitlab.com/RiskNow/test/-/raw/master/schemas/v2/etl/mapping/column_property.json"
    },
    "date_birth": {
      "$id": "#/properties/date_birth",
      "type": "string",
      "format": "date",
      "title": "The date_birth schema",
      "description": "Person date birth",
      "default": "",
      "examples": [
        "1900-01-01"
      ],
      "$ref": "https://gitlab.com/RiskNow/test/-/raw/master/schemas/v2/etl/mapping/column_property.json"
    },
    "date_death": {
      "$id": "#/properties/date_death",
      "type": "string",
      "format": "date",
      "title": "The date_death schema",
      "description": "Person date death",
      "default": "",
      "examples": [
        "1900-01-01"
      ],
      "$ref": "https://gitlab.com/RiskNow/test/-/raw/master/schemas/v2/etl/mapping/column_property.json"
    },
    "email": {
      "$id": "#/properties/email",
      "type": "string",
      "title": "The email schema",
      "description": "Person e-mail",
      "default": "",
      "examples": [
        "fake@email.com"
      ],
      "$ref": "https://gitlab.com/RiskNow/test/-/raw/master/schemas/v2/etl/mapping/column_property.json"
    },
    "full_name": {
      "$id": "#/properties/full_name",
      "type": "string",
      "title": "The full_name schema",
      "description": "Person full name",
      "default": "",
      "examples": [
        "Fake Person"
      ],
      "$ref": "https://gitlab.com/RiskNow/test/-/raw/master/schemas/v2/etl/mapping/column_property.json"
    },
    "has_document": {
      "$id": "#/properties/has_document",
      "type": "boolean",
      "title": "The has_document schema",
      "description": "If person has document",
      "default": false,
      "examples": [
        true
      ],
      "$ref": "https://gitlab.com/RiskNow/test/-/raw/master/schemas/v2/etl/mapping/column_property.json"
    },
    "is_politically_exposed": {
      "$id": "#/properties/is_politically_exposed",
      "type": "boolean",
      "title": "The is_politically_exposed schema",
      "description": "If person is politically exposed",
      "default": false,
      "examples": [
        false
      ],
      "$ref": "https://gitlab.com/RiskNow/test/-/raw/master/schemas/v2/etl/mapping/column_property.json"
    },
    "last_name": {
      "$id": "#/properties/last_name",
      "type": "string",
      "title": "The last_name schema",
      "description": "Person last name",
      "default": "",
      "examples": [
        "Person"
      ],
      "$ref": "https://gitlab.com/RiskNow/test/-/raw/master/schemas/v2/etl/mapping/column_property.json"
    },
    "middle_name": {
      "$id": "#/properties/middle_name",
      "type": "string",
      "title": "The middle_name schema",
      "description": "Person middle name",
      "default": "",
      "examples": [
        ""
      ],
      "$ref": "https://gitlab.com/RiskNow/test/-/raw/master/schemas/v2/etl/mapping/column_property.json"
    },
    "phone_number": {
      "$id": "#/properties/phone_number",
      "type": "string",
      "title": "The phone_number schema",
      "description": "Person phone number",
      "default": "",
      "examples": [
        "(00) 00 00000-0000"
      ],
      "$ref": "https://gitlab.com/RiskNow/test/-/raw/master/schemas/v2/etl/mapping/column_property.json"
    },
    "address_id": {
      "$id": "#/properties/address_id",
      "type": "integer",
      "title": "The address_id schema",
      "description": "Person address id",
      "default": 0,
      "examples": [
        0
      ],
      "$ref": "https://gitlab.com/RiskNow/test/-/raw/master/schemas/v2/etl/mapping/column_property.json"
    },
    "bank_account_id": {
      "$id": "#/properties/bank_account_id",
      "type": "integer",
      "title": "The bank_account_id schema",
      "description": "Person bank account id",
      "default": 0,
      "examples": [
        0
      ],
      "$ref": "https://gitlab.com/RiskNow/test/-/raw/master/schemas/v2/etl/mapping/column_property.json"
    }
  },
  "additionalProperties": true
}