{
   "$schema": "http://json-schema.org/draft-07/schema",
   "$id": "https://risknow.ai/back-api/schema-models-concession-input",
   "type": "object",
   "title": "The Model Concession Input Schema",
   "description": "This schema formalizes the risknow Back-API Schema Models Concession Input.",
   "default": {},
   "examples": [
      {
         "proponents": [
            {
               "document": "113.331.240-31",
               "date_birth": "1900-01-01",
               "incoming": 5976,
               "score": 500,
               "expenses": 7333.33,
               "is_for_living": true,
               "total_debt": 0
            },
            {
               "document": "004.832.550-33",
               "date_birth": "1902-02-02",
               "incoming": 3200,
               "score": 800,
               "expenses": 7333.33,
               "is_for_living": false,
               "total_debt": 0
            }
         ],
         "estate": {
            "zip_code": "14600000",
            "estate_type": {
               "loteamento": true,
               "incorporacao": false
            }
         },
         "transaction": {
            "ltv": 0.706334,
            "income_commitment": 0.1827031
         }
      }
   ],
   "properties": {
      "proponents": {
         "description": "The first proponent is the main proponent",
         "type": "array",
         "items": {
            "allOf": [
               {
                  "$ref": "https://gitlab.com/RiskNow/test/-/raw/master/openapi/json-schema/bureau/proponent.json"
               }
            ],
            "required": [
               "document",
               "date_birth",
               "score",
               "total_debt",
               "incoming"
            ]
         }
      },
      "estate": {
         "allOf": [
            {
               "$ref": "https://gitlab.com/RiskNow/test/-/raw/master/openapi/json-schema/common/estate/index.json"
            }
         ],
         "required": [
            "zip_code"
         ]
      },
      "transaction": {
         "allOf": [
            {
               "$ref": "https://gitlab.com/RiskNow/test/-/raw/master/openapi/json-schema/common/transaction/index.json"
            }
         ],
         "required": [
            "ltv",
            "income_commitment"
         ]
      }
   },
   "required": [
      "proponents",
      "estate",
      "transaction"
   ]
}

