{
   "$schema": "http://json-schema.org/draft-07/schema",
   "$id": "https://risknow.ai/etl/estate",
   "type": "object",
   "title": "The ETL Estate Schema",
   "description": "This formalized the ETL Estate Schema",
   "examples": [
      {
         "estate_code": "residencial",
         "estate_name": "Torre 2 - Abraccio",
         "estate_schedule_phase": "etapa 01",
         "estate_schedule_date_start": "2017-01-31",
         "estate_schedule_date_move": "2019-03-28",
         "estate_schedule_date_enrollment": "2019-04-28",
         "estate_typology_qty_unit": 0,
         "estate_typology_qty_rooms": 2,
         "estate_typology_type": "residencial"
      },
      {
         "estate_code": "residencial",
         "estate_name": "Torre 1 - Afetto",
         "estate_schedule_phase": "etapa 01",
         "estate_schedule_date_start": "2017-01-31",
         "estate_schedule_date_move": "2019-03-28",
         "estate_schedule_date_enrollment": "2019-04-28",
         "estate_typology_qty_unit": 0,
         "estate_typology_qty_rooms": 2,
         "estate_typology_type": "residencial"
      }
   ],
   "properties": {
      "estate_code": {
         "$id": "#/properties/estate_code",
         "type": "string",
         "title": "Estate Code",
         "description": "Unique identifier of estate",
         "examples": [
            "I394",
            "I397"
         ]
      },
      "estate_name": {
         "$id": "#/properties/estate_name",
         "type": "string",
         "title": "Estate Name",
         "description": "Name of estate",
         "examples": [
            "Arvo Lacerda Franco",
            "Origem Vg"
         ]
      },
      "estate_schedule_code": {
         "$id": "#/properties/estate_schedule_code",
         "type": "string",
         "title": "Estate Schedule Code",
         "description": "Unique identifier of estate step",
         "examples": [
            "01C",
            "01F"
         ]
      },
      "estate_schedule_name": {
         "$id": "#/properties/estate_schedule_name",
         "type": "string",
         "title": "Estate Schedule Name",
         "description": "Name of estate step",
         "examples": [
            "Bloco B",
            "Torre A",
            "Quadra 1"
         ]
      },
      "estate_schedule_phase": {
         "$id": "#/properties/estate_schedule_phase",
         "type": "string",
         "title": "Estate Schedule Phase",
         "description": "Phase of estate step",
         "$comment": "Stage of the enterprise stage (eg: schedule)",
         "examples": [
            "Etapa 01",
            "Etapa 04"
         ]
      },
      "estate_schedule_date_start": {
         "$id": "#/properties/estate_schedule_date_start",
         "type": "string",
         "title": "Estate Schedule Date Start",
         "description": "Date start of estate step",
         "examples": [
            "2020-09-10",
            "2020-01-02"
         ]
      },
      "estate_schedule_date_move": {
         "$id": "#/properties/estate_schedule_date_move",
         "type": "string",
         "title": "Estate Schedule Date Move",
         "description": "Date move of estate step",
         "examples": [
            "2020-09-10",
            "2020-01-02"
         ]
      },
      "estate_schedule_date_enrollment": {
         "$id": "#/properties/estate_schedule_date_enrollment",
         "type": "string",
         "title": "Estate Schedule Date Enrollment",
         "description": "Date enrollment of estate step",
         "examples": [
            "2020-09-10",
            "2020-01-02"
         ]
      },
      "estate_typology_qty_unit": {
         "$id": "#/properties/estate_typology_qty_unit",
         "type": "integer",
         "title": "Estate Typology Unit Quantity",
         "description": "Quantity units of estate typology",
         "examples": [
            100,
            21
         ]
      },
      "estate_typology_qty_rooms": {
         "$id": "#/properties/estate_typology_qty_rooms",
         "type": "integer",
         "title": "Estate Typology Room Quantity",
         "description": "Quantity rooms of estate typology",
         "examples": [
            2,
            3
         ]
      },
      "estate_typology_code": {
         "$id": "#/properties/estate_typology_code",
         "type": "string",
         "title": "Estate Typology Code",
         "description": "Unique identifier of estate typology",
         "examples": [
            "urbanismo",
            "residencial"
         ]
      },
      "estate_typology_type": {
         "$id": "#/properties/estate_typology_type",
         "type": "string",
         "title": "Estate Typology Type",
         "description": "Type of estate typology",
         "examples": [
            "Cobertura",
            "Apartamento",
            "urbanismo"
         ]
      }
   }
}