{
   "$schema": "http://json-schema.org/draft-07/schema",
   "$id": "https://risknow.ai/etl/receivables",
   "type": "object",
   "title": "The ETL Receivables Schema",
   "description": "This formalized the ETL Receivables Schema",
   "examples": [
      {
         "receivable_date_maturity": "2017-01-31",
         "receivable_code": "xpto",
         "receivable_installment_type": "Parcela Lote",
         "receivable_correction_index": "igpm2",
         "receivable_index": 3,
         "receivable_date_situation": "2017-01-31",
         "receivable_corr_amo_prev": 233.2300,
         "receivable_corr_rate_prev": 684.0400,
         "receivable_value_interest_rate": 12.000,
         "receivable_present_value": 883.2700,
         "receivable_value_enc_mor": 3423.2,
         "receivable_value_enc_mul": 9234.45,
         "receivable_value_s_dfi": 0.0032,
         "receivable_value_s_pre": 0.234,
         "receivable_value_rate": 0.23,
         "receivable_delinquency_aging_days": 20,
         "receivable_admin_type": "Carteira Própria - Urbanismo",
         "receivable_cobranca": "tipo de cobrança",
         "receivable_phase": "Retenção-inadimplencia Parte A",
         "receivable_resume": "Reversão Especialista",
         "receivable_sinistro": "sinistro",
         "receivable_status_restriction": "status restriction",
         "receivable_contract_type": "contract type"
      }
   ],
   "properties": {
      "receivable_date_maturity": {
         "$id": "#/properties/receivable_date_maturity",
         "type": "string",
         "title": "Date Maturity",
         "description": "Receivable date maturity",
         "examples": [
            "2017-01-31"
         ]
      },
      "receivable_code": {
         "$id": "#/properties/receivable_code",
         "type": "string",
         "title": "Receivable code",
         "description": "Receivable code",
         "examples": [
            "Xpto"
         ]
      },
      "receivable_installment_type": {
         "$id": "#/properties/receivable_installment_type",
         "type": "string",
         "title": "Receivable installment type",
         "description": "receivable installment type",
         "examples": [
            "Parcela Lote"
         ]
      },
      "receivable_correction_index": {
         "$id": "#/properties/receivable_correction_index",
         "type": "string",
         "title": "Receivable correction index",
         "description": "Receivable correction index",
         "examples": [
            "igpm2"
         ]
      },
      "receivable_index": {
         "$id": "#/properties/receivable_index",
         "type": "integer",
         "title": "Receivable index",
         "description": "Receivable index",
         "examples": [
            1,
            2
         ]
      },
      "receivable_date_situation": {
         "$id": "#/properties/receivable_date_situation",
         "type": "string",
         "title": "Receivable date situation",
         "description": "Receivable date situation",
         "examples": [
            "2020-09-10",
            "2020-01-02"
         ]
      },
      "receivable_corr_amo_prev": {
         "$id": "#/properties/receivable_corr_amo_prev",
         "type": "number",
         "title": "Receivable corr amo prev",
         "description": "Receivable fixed amortization adjustment",
         "examples": [
            233.2300,
            22.23
         ]
      },
      "receivable_corr_rate_prev": {
         "$id": "#/properties/receivable_corr_rate_prev",
         "type": "number",
         "title": "Receivable corr rate prev",
         "description": "Receivable fixed amortization adjustment index",
         "examples": [
            684.0400,
            222.28
         ]
      },
      "receivable_value_interest_rate": {
         "$id": "#/properties/receivable_value_interest_rate",
         "type": "number",
         "title": "Receivable value interest rate",
         "description": "Receivable interest rate",
         "examples": [
            12.0000,
            5
         ]
      },
      "receivable_present_value": {
         "$id": "#/properties/receivable_present_value",
         "type": "number",
         "title": "Receivable present value",
         "description": "Receivable value",
         "examples": [
            200.2300,
            800.11
         ]
      },
      "receivable_value_enc_mor": {
         "$id": "#/properties/receivable_value_enc_mor",
         "type": "number",
         "title": "Receivable late payment charge",
         "description": "",
         "examples": [
            3423.20,
            1420.2
         ]
      },
      "receivable_value_enc_mul": {
         "$id": "#/properties/receivable_value_enc_mul",
         "type": "number",
         "title": "Receivable value enc mul",
         "description": "Receivable fine charge",
         "examples": [
            9234.45,
            234.5
         ]
      },
      "receivable_value_s_dfi": {
         "$id": "#/properties/receivable_value_s_dfi",
         "type": "number",
         "title": "Receivable value s dfi",
         "description": "Receivable dfi insurance value",
         "examples": [
            0.0032,
            22.23
         ]
      },
      "receivable_value_s_pre": {
         "$id": "#/properties/receivable_value_s_pre",
         "type": "number",
         "title": "Receivable value s pre",
         "description": "Receivable moneylender insurance value",
         "examples": [
            30.2300,
            10.44
         ]
      },
      "receivable_value_rate": {
         "$id": "#/properties/receivable_value_rate",
         "type": "number",
         "title": "Receivable value rate",
         "description": "Receivable discount index value",
         "examples": [
            0.23,
            30.1
         ]
      },
      "receivable_delinquency_aging_days": {
         "$id": "#/properties/receivable_delinquency_aging_days",
         "type": "integer",
         "title": "Receivable delinquency aging days",
         "description": "Receivalue delinquency aging days",
         "examples": [
            10,
            68
         ]
      },
      "receivable_admin_type": {
         "$id": "#/properties/receivable_admin_type",
         "type": "string",
         "title": "Receivable admin type",
         "description": "Who administrate the estate",
         "examples": [
            "Carteira própria",
            "securitizada"
         ]
      },
      "receivable_cobranca": {
         "$id": "#/properties/receivable_cobranca",
         "type": "string",
         "title": "Receivable cobranca",
         "description": "Receivable billing situation",
         "examples": [
            "Jurídica",
            "administrativa"
         ]
      },
      "receivable_phase": {
         "$id": "#/properties/receivable_phase",
         "type": "string",
         "title": "Receivable phase",
         "description": "Estate phase description",
         "examples": [
            "Descrição da fase do empreendimento"
         ]
      },
      "receivable_resume": {
         "$id": "#/properties/receivable_resume",
         "type": "string",
         "title": "Receivable resume",
         "description": "Estate resume",
         "examples": [
            "Descrição da síntese do empreendimento"
         ]
      },
      "receivable_sinistro": {
         "$id": "#/properties/receivable_sinistro",
         "type": "string",
         "title": "Receivable sinistro",
         "description": "Sinistro description",
         "examples": [
            "Descrição do sinistro"
         ]
      },
      "receivable_status_restriction": {
         "$id": "#/properties/receivable_status_restriction",
         "type": "string",
         "title": "Receivable status restriction",
         "description": "Receivable status restriction",
         "examples": [
            "Jurídico",
            "Suspensão judicial"
         ]
      },
      "receivable_contract_type": {
         "$id": "#/properties/receivable_contract_type",
         "type": "string",
         "title": "Receivable contract type",
         "description": "receivable contract type",
         "examples": [
            "cobrança"
         ]
      }
   }
}