{
  "openapi": "3.0.0",
  "info": {
    "title": "Buerau",
    "version": "1.0",
    "description": "Serviço para obtenção de dados de bureau"
  },
  "servers": [
    {
      "url": "http://localhost:5010",
      "description": "Bureau Service"
    }
  ],
  "paths": {
    "/bureau": {
      "post": {
        "summary": "Credit Endpoint",
        "tags": [],
        "responses": {
          "200": {
            "description": "Bureau Output",
            "content": {
              "application/json": {
                "schema": {
                  "$ref": "#/components/schemas/bureau-output"
                },
                "examples": {
                  "example-1": {
                    "value": [
                      {
                        "document": "000.000.000-00",
                        "date_birth": "1900-01-01",
                        "incoming": 1000.0,
                        "score": 500,
                        "is_for_living": true,
                        "total_debt": 50.0
                      },
                      {
                        "document": "111.111.111-11",
                        "date_birth": "1902-02-02",
                        "incoming": 3200.0,
                        "score": 800,
                        "is_for_living": false,
                        "total_debt": 0.0
                      }
                    ]
                  }
                }
              }
            }
          }
        },
        "operationId": "post-boreau",
        "requestBody": {
          "content": {
            "application/json": {
              "schema": {
                "$ref": "#/components/schemas/bureau-input"
              },
              "examples": {
                "example-1": {
                  "value": [
                    {
                      "document": "000.000.000-00",
                      "bureau": [
                        {
                          "name": "ph3a",
                          "cache_lifetime": {
                            "days": 30
                          }
                        },
                        {
                          "name": "serasa",
                          "cache_lifetime": {
                            "days": 30
                          }
                        }
                      ]
                    },
                    {
                      "document": "111.111.111-11",
                      "bureau": [
                        {
                          "name": "serasa",
                          "cache_lifetime": {
                            "days": 30
                          }
                        }
                      ]
                    }
                  ]
                }
              }
            }
          },
          "description": "Informações sobre usuário"
        }
      }
    }
  },
  "components": {
    "schemas": {
      "bureau-input": {
        "$schema": "http://json-schema.org/draft-07/schema",
        "$id": "http://example.com/example.json",
        "type": "array",
        "title": "The root schema",
        "description": "The root schema comprises the entire JSON document.",
        "$ref": "https://gitlab.com/RiskNow/test/-/raw/master/openapi/json-schema/bureau/input.json"
      },
      "bureau-output": {
        "$schema": "http://json-schema.org/draft-07/schema",
        "$id": "http://example.com/example.json",
        "type": "array",
        "title": "The root schema",
        "description": "The root schema comprises the entire JSON document.",
        "$ref": "https://gitlab.com/RiskNow/test/-/raw/master/openapi/json-schema/bureau/output.json"
      }
    }
  }
}
