{
   "$schema": "http://json-schema.org/draft-07/schema",
   "$id": "https://risknow.ai/back-api/bureau/input.json",
   "type": "array",
   "title": "The Bureau Input Schema",
   "description": "This schema formalizes the risknow bureau input Schema",
   "default": {},
   "examples": [
      [
         {
            "document": "000.000.000-00",
            "bureau": [
               {
                  "name": "ph3a",
                  "cache_lifetime": {
                     "days": 30
                  }
               },
               {
                  "name": "serasa",
                  "cache_lifetime": {
                     "days": 30
                  }
               }
            ]
         },
         {
            "document": "111.111.111-11",
            "bureau": [
               {
                  "name": "serasa",
                  "cache_lifetime": {
                     "days": 30
                  }
               }
            ]
         }
      ]
   ],
   "items": {
      "$id": "#/items",
      "allOf": [
         {
            "$ref": "https://gitlab.com/RiskNow/test/-/raw/master/openapi/json-schema/common/proponent/index.json"
         },
         {
            "properties": {
               "bureau": {
                  "type": "array",
                  "examples": [
                     {
                        "bureau": [
                           {
                              "name": "ph3a",
                              "cache_lifetime": {
                                 "days": 30
                              }
                           },
                           {
                              "name": "serasa",
                              "cache_lifetime": {
                                 "days": 30
                              }
                           }
                        ]
                     }
                  ],
                  "items": {
                     "allOf": [
                        {
                           "$ref": "https://gitlab.com/RiskNow/test/-/raw/master/openapi/json-schema/bureau/bureau.json"
                        }
                     ]
                  }
               }
            },
            "required": [
               "bureau"
            ]
         }
      ],
      "required": [
         "document"
      ]
   }
}