{
   "$schema": "http://json-schema.org/draft-07/schema",
   "$id": "https://risknow.ai/etl/mapping/payments",
   "type": "object",
   "title": "The ETL Payment Mapping Schema",
   "description": "This formalized the ETL payment mapping Schema",
   "required": [
      "payment_contract_type",
      "payment_date_maturity",
      "payment_date_payment",
      "payment_installment_type",
      "payment_value_payment",
      "contract_code"
   ],
   "properties": {
      "contract_code": {
         "$id": "#/properties/contract_code",
         "type": "object",
         "title": "Contract Code",
         "description": "Unique identifier of contract",
         "$ref": "https://gitlab.com/RiskNow/test/-/raw/master/openapi/json-schema/etl/mapping/column_property.json"
      },
      "payment_code": {
         "$id": "#/properties/payment_code",
         "type": "object",
         "title": "Payment Code",
         "description": "Unique identifier of payment",
         "$ref": "https://gitlab.com/RiskNow/test/-/raw/master/openapi/json-schema/etl/mapping/column_property.json"
      },
      "payment_date_maturity": {
         "$id": "#/properties/payment_date_maturity",
         "type": "object",
         "title": "Payment Date Maturity",
         "description": "Date maturity of payment",
         "$comment": "This date is mentioned on receivable",
         "$ref": "https://gitlab.com/RiskNow/test/-/raw/master/openapi/json-schema/etl/mapping/column_property.json"
      },
      "payment_date_payment": {
         "$id": "#/properties/payment_date_payment",
         "type": "object",
         "title": "Payment Date Maturity",
         "description": "Date maturity of payment",
         "$comment": "This date is mentioned on receivable",
         "$ref": "https://gitlab.com/RiskNow/test/-/raw/master/openapi/json-schema/etl/mapping/column_property.json"
      },
      "payment_acr_info": {
         "$id": "#/properties/payment_acr_info",
         "type": "object",
         "title": "Payment Addition",
         "description": "Addition of payment",
         "$ref": "https://gitlab.com/RiskNow/test/-/raw/master/openapi/json-schema/etl/mapping/column_property.json"
      },
      "payment_corr_rate": {
         "$id": "#/properties/payment_corr_rate",
         "type": "object",
         "title": "Payment Correction Rate",
         "description": "Interest correction (eg IPCA, IGPM etc.)",
         "$ref": "https://gitlab.com/RiskNow/test/-/raw/master/openapi/json-schema/etl/mapping/column_property.json"
      },
      "payment_corr_amo": {
         "$id": "#/properties/payment_corr_amo",
         "type": "object",
         "title": "Payment Correction Amortization",
         "description": "Correction Amortization of payment",
         "$ref": "https://gitlab.com/RiskNow/test/-/raw/master/openapi/json-schema/etl/mapping/column_property.json"
      },
      "payment_desc_com": {
         "$id": "#/properties/payment_desc_com",
         "type": "object",
         "title": "Payment Discount Commercial",
         "description": "Commercial discount of payment",
         "$ref": "https://gitlab.com/RiskNow/test/-/raw/master/openapi/json-schema/etl/mapping/column_property.json"
      },
      "payment_desc_fin": {
         "$id": "#/properties/payment_desc_fin",
         "type": "object",
         "title": "Payment Discount Financial",
         "description": "Financial discount of payment",
         "$ref": "https://gitlab.com/RiskNow/test/-/raw/master/openapi/json-schema/etl/mapping/column_property.json"
      },
      "payment_value_acr": {
         "$id": "#/properties/payment_value_acr",
         "type": "object",
         "title": "Payment Value Accrual",
         "description": "Accrual amount of payment",
         "$ref": "https://gitlab.com/RiskNow/test/-/raw/master/openapi/json-schema/etl/mapping/column_property.json"
      },
      "payment_value_acr_adi": {
         "$id": "#/properties/payment_value_acr_adi",
         "type": "object",
         "title": "Payment Value Accrual Additional",
         "description": "Accrual additional amount of payment",
         "$ref": "https://gitlab.com/RiskNow/test/-/raw/master/openapi/json-schema/etl/mapping/column_property.json"
      },
      "payment_value_added": {
         "$id": "#/properties/payment_value_added",
         "type": "object",
         "title": "Payment Value Added",
         "description": "Value Added of payment",
         "$ref": "https://gitlab.com/RiskNow/test/-/raw/master/openapi/json-schema/etl/mapping/column_property.json"
      },
      "payment_value_amort": {
         "$id": "#/properties/payment_value_amort",
         "type": "object",
         "title": "Payment Value Amortization",
         "description": "Value Amortization of payment",
         "$ref": "https://gitlab.com/RiskNow/test/-/raw/master/openapi/json-schema/etl/mapping/column_property.json"
      },
      "payment_value_des_adi": {
         "$id": "#/properties/payment_value_des_adi",
         "type": "object",
         "title": "Payment Value Discount Additional",
         "description": "Additional discount amount of payment",
         "$ref": "https://gitlab.com/RiskNow/test/-/raw/master/openapi/json-schema/etl/mapping/column_property.json"
      },
      "payment_value_enc_mor": {
         "$id": "#/properties/payment_value_enc_mor",
         "type": "object",
         "title": "Payment Value Charges Delays",
         "description": "Amount of Charges Delays of payment",
         "$ref": "https://gitlab.com/RiskNow/test/-/raw/master/openapi/json-schema/etl/mapping/column_property.json"
      },
      "payment_value_enc_mul": {
         "$id": "#/properties/payment_value_enc_mul",
         "type": "object",
         "title": "Payment Value Fine Charges",
         "description": "Fine Charges Amount of payment",
         "$ref": "https://gitlab.com/RiskNow/test/-/raw/master/openapi/json-schema/etl/mapping/column_property.json"
      },
      "payment_value_enc_pre": {
         "$id": "#/properties/payment_value_enc_pre",
         "type": "object",
         "title": "Payment Value Estimated Charges",
         "description": "Estimated Charges Amount of payment",
         "$ref": "https://gitlab.com/RiskNow/test/-/raw/master/openapi/json-schema/etl/mapping/column_property.json"
      },
      "payment_value_enc_total": {
         "$id": "#/properties/payment_value_enc_total",
         "type": "object",
         "title": "Payment Value Charges Total",
         "description": "Total Charge Amount of payment",
         "$ref": "https://gitlab.com/RiskNow/test/-/raw/master/openapi/json-schema/etl/mapping/column_property.json"
      },
      "payment_value_hono": {
         "$id": "#/properties/payment_value_hono",
         "type": "object",
         "title": "Payment Value Fees",
         "description": "Fees of payment",
         "$ref": "https://gitlab.com/RiskNow/test/-/raw/master/openapi/json-schema/etl/mapping/column_property.json"
      },
      "payment_installment_type": {
         "$id": "#/properties/payment_installment_type",
         "type": "object",
         "title": "Payment Installment Type",
         "description": "Installment Type of payment",
         "$ref": "https://gitlab.com/RiskNow/test/-/raw/master/openapi/json-schema/etl/mapping/column_property.json"
      },
      "payment_contract_type": {
         "$id": "#/properties/payment_contract_type",
         "type": "object",
         "title": "Payment Contract Type",
         "description": "Contract Type of payment",
         "$ref": "https://gitlab.com/RiskNow/test/-/raw/master/openapi/json-schema/etl/mapping/column_property.json"
      },
      "payment_value_payment": {
         "$id": "#/properties/payment_value_payment",
         "type": "object",
         "title": "Payment Value Payment",
         "description": "Value Payment of payment",
         "$ref": "https://gitlab.com/RiskNow/test/-/raw/master/openapi/json-schema/etl/mapping/column_property.json"
      }
   },
   "additionalProperties": false
}