{
  "$schema": "http://json-schema.org/draft-07/schema",
  "$id": "https://risknow.ai/etl/input_etl_crud.json",
  "type": "object",
  "title": "The ETL Crud Input Schema",
  "description": "This formalized the ETL Crud Input Schema",
  "examples": [
    {
      "company_id": 111,
      "date_ref": "2020-10-31",
      "options": {
        "source": "drive"
      },
      "file_url": "https://drive.google.com/file/d/1aLErHtYS/"
    }
  ],
  "required": [
    "date_ref",
    "options"
  ],
  "properties": {
    "company_id": {
      "$id": "#/properties/company_id",
      "title": "The Company ID",
      "description": "The company ID which start ETL pipeline process",
      "type": "integer",
      "maxLength": 30
    },
    "date_ref": {
      "$id": "#/properties/date_ref",
      "title": "The Date Reference",
      "description": "The date reference import",
      "type": "string",
      "format": "date"
    },
    "options": {
      "$id": "#/properties/options",
      "title": "Options",
      "description": "Options to make import",
      "type": "object",
      "properties": {
        "source": {
          "title": "Source",
          "description": "Source for obtaining import data",
          "enum": [
            "s3",
            "drive",
            "mongodb"
          ]
        },
        "file_url": {
          "$id": "#/properties/file_url",
          "title": "The File URL",
          "description": "The file url should used to download process on ETL pipeline",
          "type": "string",
          "pattern": "http[s]?://(?:[a-zA-Z]|[0-9]|[$-_@.&+]|[!*(),]|(?:%[0-9a-fA-F][0-9a-fA-F]))+"
        }
      },
      "required": [
        "source"
      ],
      "anyOf": [
        {
          "properties": {
            "source": {
              "const": "drive"
            }
          },
          "required": [
            "file_url"
          ]
        }
      ]
    }
  },
  "additionalProperties": false
}
