{
  "$schema": "http://json-schema.org/draft-07/schema",
  "$id": "https://risknow.ai/back-api/bureau/output.json",
  "type": "array",
  "title": "The Bureau Output Schema",
  "description": "This schema formalizes the risknow bureau output Schema",
  "default": {},
  "examples": [
    [
      {
        "document": "369.845.380-09",
        "full_name": "Ana Sophia Novaes",
        "date_birth": "1997-10-27",
        "incoming": 1572.8,
        "score": 253,
        "is_for_living": true,
        "total_debt": 45233,
        "delinquency_probability": 0.74,
        "is_allowable": false,
        "credit_restriction": {
          "overdue_debt_detail": [
            {
              "city": "Campos",
              "name": "Detalhe dívida vencida",
              "type": "CP",
              "value": 1711,
              "currency": "R$",
              "registry": "B368",
              "debt_number": "0002018497196861",
              "occurrence_date": "03/03/1971",
              "occurrences_total": "00003",
              "partner_institution": "Da Cunha S/A Ltda."
            },
            {
              "city": "Silva",
              "name": "Detalhe dívida vencida",
              "type": "CP",
              "value": 971,
              "currency": "R$",
              "registry": "B368",
              "debt_number": "0002018497196861",
              "occurrence_date": "08/05/1985",
              "occurrences_total": "00003",
              "partner_institution": "Da Cruz e Filhos"
            },
            {
              "city": "Moraes",
              "name": "Detalhe dívida vencida",
              "type": "CP",
              "value": 2290,
              "currency": "R$",
              "registry": "B368",
              "debt_number": "0002018497196861",
              "occurrence_date": "10/10/1988",
              "occurrences_total": "00003",
              "partner_institution": "Farias Carvalho S/A Ltda."
            }
          ],
          "pending_payment_detail": [
            {
              "name": "Detalhe pendência de pagamento",
              "state": "",
              "value": 9809,
              "avalist": "N",
              "company": "Fogaça - Me - ME",
              "currency": "R$",
              "registry": "B358",
              "pefin_type": "Pendência Financeira do Mercado",
              "subjudice": "",
              "credit_type": "CRED CARTAO",
              "company_code": "",
              "credit_model": "CT",
              "contract_number": "43450704629002",
              "occurrence_date": "26/02/2002",
              "occurrences_total": 8,
              "company_public_code": ""
            },
            {
              "name": "Detalhe pendência de pagamento",
              "state": "",
              "value": 7059,
              "avalist": "S",
              "company": "Da Paz - Me - EI",
              "currency": "R$",
              "registry": "B358",
              "pefin_type": "Pendência Financeira do Mercado",
              "subjudice": "",
              "credit_type": "CRED CARTAO",
              "company_code": "",
              "credit_model": "CT",
              "contract_number": "43450704629002",
              "occurrence_date": "06/07/2008",
              "occurrences_total": 9,
              "company_public_code": ""
            },
            {
              "name": "Detalhe pendência de pagamento",
              "state": "",
              "value": 574,
              "avalist": "N",
              "company": "Vieira S/A - ME",
              "currency": "R$",
              "registry": "B358",
              "pefin_type": "Pendência Financeira do Mercado",
              "subjudice": "",
              "credit_type": "CRED CARTAO",
              "company_code": "",
              "credit_model": "CT",
              "contract_number": "43450704629002",
              "occurrence_date": "20/07/1976",
              "occurrences_total": 6,
              "company_public_code": ""
            }
          ],
          "protest_details": [
            {
              "city": "Caldeira",
              "name": "Detalhe protestos",
              "state": "SE",
              "value": 6045,
              "currency": "R$",
              "registry": "B362",
              "subjudice": "",
              "occurrence_date": "24/05/1971",
              "registry_office": "0001",
              "occurrences_total": 7
            }
          ],
          "check_detail": []
        },
        "historical_queries": [
          {
            "name": "Detalhe de registro de consultas",
            "value": 4398,
            "currency": "",
            "registry": "B354",
            "company_consult": "Gomes Da Cruz S.A. S/A",
            "occurrence_date": "14/09/2015",
            "credit_type_consult": ""
          },
          {
            "name": "Detalhe de registro de consultas",
            "value": 1508,
            "currency": "",
            "registry": "B354",
            "company_consult": "Campos S/A",
            "occurrence_date": "11/06/1976",
            "credit_type_consult": ""
          },
          {
            "name": "Detalhe de registro de consultas",
            "value": 2963,
            "currency": "",
            "registry": "B354",
            "company_consult": "Cavalcanti - ME",
            "occurrence_date": "21/02/1974",
            "credit_type_consult": ""
          }
        ]
      },
      {
        "document": "052.007.540-46",
        "full_name": "João Guilherme Ribeiro",
        "date_birth": "2000-05-16",
        "incoming": null,
        "score": 483,
        "is_for_living": true,
        "total_debt": 64835,
        "delinquency_probability": 0.63,
        "is_allowable": true,
        "credit_restriction": {
          "overdue_debt_detail": [
            {
              "city": "Campos",
              "name": "Detalhe dívida vencida",
              "type": "CP",
              "value": 1711,
              "currency": "R$",
              "registry": "B368",
              "debt_number": "0002018497196861",
              "occurrence_date": "03/03/1971",
              "occurrences_total": "00003",
              "partner_institution": "Da Cunha S/A Ltda."
            },
            {
              "city": "Silva",
              "name": "Detalhe dívida vencida",
              "type": "CP",
              "value": 971,
              "currency": "R$",
              "registry": "B368",
              "debt_number": "0002018497196861",
              "occurrence_date": "08/05/1985",
              "occurrences_total": "00003",
              "partner_institution": "Da Cruz e Filhos"
            },
            {
              "city": "Moraes",
              "name": "Detalhe dívida vencida",
              "type": "CP",
              "value": 2290,
              "currency": "R$",
              "registry": "B368",
              "debt_number": "0002018497196861",
              "occurrence_date": "10/10/1988",
              "occurrences_total": "00003",
              "partner_institution": "Farias Carvalho S/A Ltda."
            }
          ],
          "pending_payment_detail": [
            {
              "name": "Detalhe pendência de pagamento",
              "state": "",
              "value": 9809,
              "avalist": "N",
              "company": "Fogaça - Me - ME",
              "currency": "R$",
              "registry": "B358",
              "pefin_type": "Pendência Financeira do Mercado",
              "subjudice": "",
              "credit_type": "CRED CARTAO",
              "company_code": "",
              "credit_model": "CT",
              "contract_number": "43450704629002",
              "occurrence_date": "26/02/2002",
              "occurrences_total": 8,
              "company_public_code": ""
            },
            {
              "name": "Detalhe pendência de pagamento",
              "state": "",
              "value": 7059,
              "avalist": "S",
              "company": "Da Paz - Me - EI",
              "currency": "R$",
              "registry": "B358",
              "pefin_type": "Pendência Financeira do Mercado",
              "subjudice": "",
              "credit_type": "CRED CARTAO",
              "company_code": "",
              "credit_model": "CT",
              "contract_number": "43450704629002",
              "occurrence_date": "06/07/2008",
              "occurrences_total": 9,
              "company_public_code": ""
            },
            {
              "name": "Detalhe pendência de pagamento",
              "state": "",
              "value": 574,
              "avalist": "N",
              "company": "Vieira S/A - ME",
              "currency": "R$",
              "registry": "B358",
              "pefin_type": "Pendência Financeira do Mercado",
              "subjudice": "",
              "credit_type": "CRED CARTAO",
              "company_code": "",
              "credit_model": "CT",
              "contract_number": "43450704629002",
              "occurrence_date": "20/07/1976",
              "occurrences_total": 6,
              "company_public_code": ""
            }
          ],
          "protest_details": [
            {
              "city": "Caldeira",
              "name": "Detalhe protestos",
              "state": "SE",
              "value": 6045,
              "currency": "R$",
              "registry": "B362",
              "subjudice": "",
              "occurrence_date": "24/05/1971",
              "registry_office": "0001",
              "occurrences_total": 7
            }
          ],
          "check_detail": []
        },
        "historical_queries": [
          {
            "name": "Detalhe de registro de consultas",
            "value": 4398,
            "currency": "",
            "registry": "B354",
            "company_consult": "Gomes Da Cruz S.A. S/A",
            "occurrence_date": "14/09/2015",
            "credit_type_consult": ""
          },
          {
            "name": "Detalhe de registro de consultas",
            "value": 1508,
            "currency": "",
            "registry": "B354",
            "company_consult": "Campos S/A",
            "occurrence_date": "11/06/1976",
            "credit_type_consult": ""
          },
          {
            "name": "Detalhe de registro de consultas",
            "value": 2963,
            "currency": "",
            "registry": "B354",
            "company_consult": "Cavalcanti - ME",
            "occurrence_date": "21/02/1974",
            "credit_type_consult": ""
          }
        ]
      }
    ]
  ],
  "items": {
    "$id": "#/items",
    "allOf": [
      {
        "$ref": "https://gitlab.com/RiskNow/test/-/raw/master/openapi/json-schema/bureau/proponent.json"
      }
    ],
    "required": [
      "document",
      "date_birth",
      "incoming",
      "score",
      "total_debt",
      "full_name"
    ]
  }
}
