{
    "$schema": "http://json-schema.org/draft-07/schema",
    "$id": "http://example.com/example.json",
    "type": "object",
    "title": "The root schema",
    "description": "The root schema comprises the entire JSON document.",
    "default": {},
    "examples": [
        {
            "documents": [
                "000.000.000-00",
                "111.111.111-11",
                "222.222.222-22"
            ],
            "bureaus": {
                "serasa": {
                    "cache_days": 100,
                    "policy": "partial"
                },
                "ph3a": {
                    "cache_days": 100
                },
                "digesto": {
                    "cache_days": 100
                }
            }
        }
    ],
    "required": [
        "documents",
        "bureaus"
    ],
    "properties": {
        "documents": {
            "$id": "#/properties/documents",
            "type": "array",
            "title": "The documents schema",
            "description": "An explanation about the purpose of this instance.",
            "default": [],
            "examples": [
                [
                    "000.000.000-00",
                    "111.111.111-11"
                ]
            ],
            "additionalItems": false,
            "items": {
                "$id": "#/properties/documents/items",
                "type": "string",
                "maxItems": 10
            }
        },
        "bureaus": {
            "$id": "#/properties/bureaus",
            "type": "object",
            "title": "The bureaus schema",
            "description": "An explanation about the purpose of this instance.",
            "default": {},
            "examples": [
                {
                    "serasa": {
                        "cache_days": 100,
                        "policy": "partial"
                    },
                    "ph3a": {
                        "cache_days": 100
                    },
                    "digesto": {
                        "cache_days": 100
                    }
                }
            ],
            "properties": {
                "serasa": {
                    "$id": "#/properties/bureaus/properties/serasa",
                    "type": "object",
                    "title": "The serasa schema",
                    "description": "An explanation about the purpose of this instance.",
                    "default": {},
                    "examples": [
                        {
                            "cache_days": 100,
                            "policy": "partial"
                        }
                    ],
                    "required": [
                        "cache_days",
                        "policy"
                    ],
                    "properties": {
                        "cache_days": {
                            "$id": "#/properties/bureaus/properties/serasa/properties/cache_days",
                            "type": "integer",
                            "title": "The cache_days schema",
                            "description": "An explanation about the purpose of this instance.",
                            "default": 0,
                            "examples": [
                                100
                            ]
                        },
                        "policy": {
                            "$id": "#/properties/bureaus/properties/serasa/properties/policy",
                            "type": "string",
                            "title": "The policy schema",
                            "description": "An explanation about the purpose of this instance.",
                            "default": "",
                            "examples": [
                                "partial"
                            ]
                        }
                    },
                    "additionalProperties": false
                },
                "ph3a": {
                    "$id": "#/properties/bureaus/properties/ph3a",
                    "type": "object",
                    "title": "The ph3a schema",
                    "description": "An explanation about the purpose of this instance.",
                    "default": {},
                    "examples": [
                        {
                            "cache_days": 100
                        }
                    ],
                    "required": [
                        "cache_days"
                    ],
                    "properties": {
                        "cache_days": {
                            "$id": "#/properties/bureaus/properties/ph3a/properties/cache_days",
                            "type": "integer",
                            "title": "The cache_days schema",
                            "description": "An explanation about the purpose of this instance.",
                            "default": 0,
                            "examples": [
                                100
                            ]
                        }
                    },
                    "additionalProperties": false
                },
                "digesto": {
                    "$id": "#/properties/bureaus/properties/digesto",
                    "type": "object",
                    "title": "The digesto schema",
                    "description": "An explanation about the purpose of this instance.",
                    "default": {},
                    "examples": [
                        {
                            "cache_days": 100
                        }
                    ],
                    "required": [
                        "cache_days"
                    ],
                    "properties": {
                        "cache_days": {
                            "$id": "#/properties/bureaus/properties/digesto/properties/cache_days",
                            "type": "integer",
                            "title": "The cache_days schema",
                            "description": "An explanation about the purpose of this instance.",
                            "default": 0,
                            "examples": [
                                100
                            ]
                        }
                    },
                    "additionalProperties": false
                }
            },
            "additionalProperties": false
        }
    },
    "additionalProperties": false
}