{
    "$schema": "http://json-schema.org/draft-07/schema",
    "$id": "http://example.com/example.json",
    "type": "object",
    "title": "The root schema",
    "description": "The root schema comprises the entire JSON document.",
    "default": {},
    "examples": [
        {
            "model": "concession",
            "model_input": {}
        }
    ],
    "required": [
        "model",
        "model_input"
    ],
    "properties": {
        "model": {
            "$id": "#/properties/model",
            "type": "string",
            "title": "The model schema",
            "description": "An explanation about the purpose of this instance.",
            "default": "",
            "enum": ["concession", "behavior"],
            "examples": [
                "concession",
                "behavior"
            ]
        },
        "model_input": {
            "$id": "#/properties/model_input",
            "type": "object",
            "title": "The model_input schema",
            "description": "An explanation about the purpose of this instance.",
            "default": {},
            "examples": [
                {}
            ],
            "required": [],
            "additionalProperties": true
        }
    },
    "additionalProperties": false
}
