{
  "$schema": "http://json-schema.org/draft-07/schema",
  "$id": "https://risknow.ai/etl/input_etl_update_tempalte.json",
  "type": "object",
  "title": "The ETL Input Update Template Schema",
  "description": "This formalized the ETL Input Update template Schema",
  "required": [
    "company_id",
    "template"
  ],
  "examples": [
    {
      "company_id": 1,
      "template": {
        "contract": {
          "mapping": {
            "contract_code": {
              "origin": "Contrato"
            },
            "contract_is_active": {
              "origin": "Status"
            },
            "contract_type": {
              "origin": "Tipo"
            },
            "estate_code": {
              "origin": "Empreendimento"
            },
            "estate_schedule_code": {
              "origin": "Quadra"
            },
            "estate_typology_code": {
              "origin": "Lote"
            },
            "titular_code": {
              "origin": "cpf_cnpj_main"
            },
            "titular_name": {
              "origin": "Cliente"
            }
          },
          "sheet": "relação_de_contratos"
        },
        "delinquency": {
          "mapping": {
            "contract_code": {
              "origin": "Contrato"
            },
            "receivable_contract_type": {
              "origin": "Tipo de Contrato"
            },
            "receivable_date_maturity": {
              "origin": "Vencimento"
            },
            "receivable_installment_type": {
              "origin": "Origem"
            },
            "receivable_present_value": {
              "origin": "Valor Atualizado"
            }
          },
          "sheet": "inadimplência_por_contrato"
        },
        "estate": {
          "mapping": {
            "estate_code": {
              "origin": "Empreendimento"
            },
            "estate_name": {
              "origin": "Empreendimento"
            },
            "estate_schedule_code": {
              "origin": "Quadra"
            },
            "estate_typology_code": {
              "origin": "Lote"
            },
            "estate_typology_type": {
              "default": "LOTEAMENTO"
            }
          },
          "sheet": "relação_de_contratos"
        },
        "payments": {
          "mapping": {
            "contract_code": {
              "origin": "Contrato"
            },
            "payment_contract_type": {
              "origin": "Tipo"
            },
            "payment_date_maturity": {
              "origin": "Vencimento"
            },
            "payment_date_payment": {
              "origin": "Baixa"
            },
            "payment_installment_type": {
              "origin": "Lote"
            },
            "payment_value_payment": {
              "origin": "Valor Pago"
            }
          },
          "sheet": "boletim_de_recebimentos"
        },
        "receivables": {
          "mapping": {
            "contract_code": {
              "origin": "Contrato"
            },
            "receivable_contract_type": {
              "origin": "Tipo"
            },
            "receivable_date_maturity": {
              "origin": "Vencimento"
            },
            "receivable_installment_type": {
              "origin": "Origem"
            },
            "receivable_present_value": {
              "origin": "Valor"
            }
          },
          "merges": {
            "test": {
              "how": "inner",
              "origin_key": [
                "d"
              ],
              "sheet_key": [
                "test"
              ]
            }
          },
          "filter": {
            "receivables": {
              "condition": "!=",
              "key": "d",
              "values": null
            }
          },
          "sheet": "parcelas_a_vencer"
        }
      }
    }
  ],
  "allOf": [
    {
      "$ref": "https://gitlab.com/RiskNow/test/-/raw/master/openapi/json-schema/etl/template/template.json"
    }
  ],
  "properties": {
    "company_id": {
      "$id": "#/properties/company_id",
      "title": "The Company ID",
      "description": "The company ID which start ETL pipeline process"
    }
  }
}
