{
  "$schema": "http://json-schema.org/draft-07/schema",
  "$id": "https://risknow.ai/etl/input_etl_post_template.json",
  "type": "object",
  "title": "The ETL Input Post Template Schema - V2",
  "description": "This formalized the ETL Input Post template Schema - V2",
  "required": [
    "data",
    "template",
    "company_name"
  ],
  "examples": [
    {
      "data": {
        "has_delinquency": true,
        "id_prod": 92,
        "id_uat": 50
      },
      "template": {
        "contract": {
          "mapping": {
            "contract_code": {
              "origin": "Contrato"
            },
            "contract_is_active": {
              "origin": "Status"
            },
            "contract_type": {
              "origin": "Tipo"
            },
            "estate_code": {
              "origin": "Empreendimento"
            },
            "estate_schedule_code": {
              "origin": "Quadra"
            },
            "estate_typology_code": {
              "origin": "Lote"
            },
            "titular_code": {
              "origin": "cpf_cnpj_main"
            },
            "titular_name": {
              "origin": "Cliente"
            }
          },
          "sheet": "relação_de_contratos"
        },
        "delinquency": {
          "mapping": {
            "contract_code": {
              "origin": "Contrato"
            },
            "receivable_contract_type": {
              "origin": "Tipo de Contrato"
            },
            "receivable_date_maturity": {
              "origin": "Vencimento"
            },
            "receivable_installment_type": {
              "origin": "Origem"
            },
            "receivable_present_value": {
              "origin": "Valor Atualizado"
            }
          },
          "sheet": "inadimplência_por_contrato"
        },
        "estate": {
          "mapping": {
            "estate_code": {
              "origin": "Empreendimento"
            },
            "estate_name": {
              "origin": "Empreendimento"
            },
            "estate_schedule_code": {
              "origin": "Quadra"
            },
            "estate_typology_code": {
              "origin": "Lote"
            },
            "estate_typology_type": {
              "default": "LOTEAMENTO"
            }
          },
          "sheet": "relação_de_contratos"
        },
        "payments": {
          "mapping": {
            "contract_code": {
              "origin": "Contrato"
            },
            "payment_contract_type": {
              "origin": "Tipo"
            },
            "payment_date_maturity": {
              "origin": "Vencimento"
            },
            "payment_date_payment": {
              "origin": "Baixa"
            },
            "payment_installment_type": {
              "origin": "Lote"
            },
            "payment_value_payment": {
              "origin": "Valor Pago"
            }
          },
          "sheet": "boletim_de_recebimentos"
        },
        "receivables": {
          "mapping": {
            "contract_code": {
              "origin": "Contrato"
            },
            "receivable_contract_type": {
              "origin": "Tipo"
            },
            "receivable_date_maturity": {
              "origin": "Vencimento"
            },
            "receivable_installment_type": {
              "origin": "Origem"
            },
            "receivable_present_value": {
              "origin": "Valor"
            }
          },
          "merges": {
            "test": {
              "how": "inner",
              "origin_key": [
                "d"
              ],
              "sheet_key": [
                "test"
              ]
            }
          },
          "filter": {
            "receivables": {
              "condition": "!=",
              "key": "d",
              "values": null
            }
          },
          "sheet": "parcelas_a_vencer"
        }
      }
    }
  ],
  "properties": {
    "company_name": {
      "type": "string",
      "title": "The Company Name",
      "minLength": 1,
      "maxLength": 30
    },
    "data": {
      "$ref": "https://gitlab.com/RiskNow/test/-/raw/master/schemas/v2/etl/template/data.json"
    },
    "template": {
      "$ref": "https://gitlab.com/RiskNow/test/-/raw/master/schemas/v2/etl/template/template.json"
    }
  },
  "additionalProperties": false
}
