{
  "$schema": "http://json-schema.org/draft-07/schema",
  "$id": "https://risknow.ai/etl/input_etl_crud.json",
  "type": "object",
  "title": "The ETL Crud Input Schema",
  "description": "This formalized the ETL Crud Input Schema",
  "examples": [
    {
      "id_prod": 11,
      "id_uat": 215,
      "date_ref": "2020-10-31",
      "options": {
        "source": "drive"
      },
      "file_url": "https://drive.google.com/file/d/1aLErHtYS/"
    }
  ],
  "required": [
    "company_id",
    "date_ref",
    "normalized_files",
     "template"
  ],
  "properties": {
    "company_id": {
      "$id": "#/properties/company_id",
      "title": "The Company ID",
      "description": "The company ID which start ETL pipeline process",
      "type": "integer",
      "maxLength": 30
    },
    "date_ref": {
      "$id": "#/properties/date_ref",
      "title": "The Date Reference",
      "description": "The date reference import",
      "type": "string",
      "format": "date"
    },
    "normalized_files": {
      "$id": "#/properties/normalized_files",
      "title": "The Normalized Files from ETL Normalize",
      "type": "array",
      "items": {
        "type": "string"
      },
      "minItems": 4,
      "uniqueItems": true
    },
    "template": {
      "title": "The template of company",
      "type": "object",
      "required": [
        "data",
        "template",
        "company_name"
      ],
      "allOf": [
        {
          "$ref": "https://gitlab.com/RiskNow/test/-/raw/master/openapi/json-schema/etl/template/template.json"
        },
        {
          "$ref": "https://gitlab.com/RiskNow/test/-/raw/master/openapi/json-schema/etl/template/data.json"
        }
      ],
      "company_name": {
        "$id": "#/properties/company_name",
        "type": "object",
        "title": "Company Name",
        "description": "Name of company"
      }
    }
  },
  "additionalProperties": true
}
