{
  "$schema": "http://json-schema.org/draft-07/schema",
  "$id": "https://risknow.ai/back-api/common/proponent/index.json",
  "type": "object",
  "title": "The Proponent Schema",
  "description": "Borrower information.",
  "examples": [
    {
      "document": "113.331.240-31",
      "date_birth": "1900-01-01",
      "incoming": 5976,
      "expenses": 7333.33,
      "incoming_monthly_extra": 5457.0,
      "is_for_living": false,
      "total_debt": 955.55,
      "score": 550,
      "has_fgts_contribution": false,
      "is_same_estate_city_prop": false,
      "is_financed_property_possession": true
    },
    {
      "document": "113.331.240-31",
      "date_birth": "1900-01-01",
      "incoming": 5976,
      "expenses": 7333.33,
      "incoming_monthly_extra": 5457.0,
      "is_for_living": true,
      "total_debt": 1045.33,
      "score": 898
    }
  ],
  "properties": {
    "document": {
      "$id": "#/properties/document",
      "type": "string",
      "description": "Brazil CPF Code",
      "pattern": "[0-9]{3}\\.?[0-9]{3}\\.?[0-9]{3}\\-?[0-9]{2}",
      "examples": ["000.000.000-00"]
    },
    "full_name": {
      "$id": "#/properties/full_name",
      "type": "string",
      "title": "The document schema",
      "description": "An explanation about the purpose of this instance.",
      "default": "",
      "examples": ["José da Silva"]
    },
    "date_birth": {
      "$id": "#/properties/date_birth",
      "type": "string",
      "description": "The date of birth",
      "examples": ["1900-01-01"]
    },
    "incoming": {
      "$id": "#/properties/incoming",
      "type": "number",
      "description": "The incoming of proponent",
      "examples": [5976]
    },
    "expenses": {
      "$id": "#/properties/expenses",
      "type": "number",
      "description": "The expenses of proponent",
      "examples": [7333.33]
    },
    "incoming_monthly_extra": {
      "$id": "#/properties/incoming_monthly_extra",
      "type": "number",
      "description": "The incoming monthly extra of proponent",
      "examples": [1992.2]
    },
    "is_for_living": {
      "$id": "#/properties/is_for_living",
      "type": "boolean",
      "description": "The flag case has is for living",
      "examples": [1992.2]
    },
    "score": {
      "$id": "#/properties/score",
      "type": "integer",
      "description": "The returned serasa score by bureau",
      "examples": [550, 950]
    },
    "total_debt": {
      "$id": "#/properties/total_debt",
      "type": "number",
      "description": "The total of debt (restriction value) of proponent",
      "examples": [1050.55, 5045.95]
    },
    "has_fgts_contribution": {
      "$id": "#/properties/has_fgts_contribution",
      "type": "boolean",
      "description": "The has_fgts_contribution schema",
      "default": false,
      "examples": [false]
    },
    "is_same_estate_city_prop": {
      "$id": "#/properties/is_same_estate_city_prop",
      "type": "boolean",
      "description": "The is_same_estate_city_prop schema",
      "default": false,
      "examples": [true]
    },
    "is_financed_property_possession": {
      "$id": "#/properties/is_financed_property_possession",
      "type": "boolean",
      "description": "The is_financed_property_possession schema",
      "default": false,
      "examples": [false]
    }
  },
  "additionalProperties": true
}
