{
    "$schema": "http://json-schema.org/draft-07/schema",
    "$id": "https://risknow.ai/common/contract_source_type.json",
    "type": "object",
    "title": "The root schema",
    "description": "The root schema comprises the entire JSON document.",
    "default": {},
    "examples": [
        {
            "description": "any source",
            "value": "11"
        }
    ],
    "required": [
        "value"
    ],
    "properties": {
        "description": {
            "$id": "#/properties/description",
            "type": "string",
            "title": "The description schema",
            "description": "source type description",
            "default": "",
            "examples": [
                "any source"
            ]
        },
        "value": {
            "$id": "#/properties/value",
            "type": "string",
            "title": "The value schema",
            "description": "source type value",
            "default": "",
            "examples": [
                "11"
            ]
        }
    },
    "additionalProperties": true
}