{
  "$id": "#/properties/bank",
  "type": "object",
  "title": "The api input schema",
  "description": "An explanation about the purpose of this instance.",
  "default": {},
  "examples": [
    {
      "proponents": [
        [
          {
            "document": "369.845.380-09",
            "full_name": "Ana Sophia Novaes",
            "date_birth": "1997-10-27",
            "incoming": 10070,
            "score": 253,
            "expenses": 5,
            "is_for_living": true,
            "total_debt": 45233,
            "delinquency_probability": 0.74,
            "is_allowable": false,
            "credit_restriction": [
              {
                "city": "das Neves de Alves",
                "name": "Detalhe dívida vencida",
                "type": "CP",
                "value": 643,
                "currency": "R$",
                "registry": "B368",
                "debt_number": "0002018497196861",
                "occurrence_date": "15/06/1976",
                "occurrences_total": "00003",
                "partner_institution": "Fogaça S/A"
              },
              {
                "city": "Lopes da Serra",
                "name": "Detalhe dívida vencida",
                "type": "CP",
                "value": 5446,
                "currency": "R$",
                "registry": "B368",
                "debt_number": "0002018497196861",
                "occurrence_date": "26/07/2001",
                "occurrences_total": "00003",
                "partner_institution": "Souza Ltda."
              },
              {
                "name": "Detalhe pendência de pagamento",
                "state": "",
                "value": 6933,
                "avalist": "N",
                "company": "Jesus Freitas Ltda. Ltda.",
                "currency": "R$",
                "registry": "B358",
                "pefin_type": "Pendência Financeira do Mercado",
                "subjudice": "",
                "credit_type": "CRED CARTAO",
                "company_code": "",
                "credit_model": "CT",
                "contract_number": "43450704629002",
                "occurrence_date": "14/08/2011",
                "occurrences_total": 10,
                "company_public_code": ""
              },
              {
                "name": "Detalhe pendência de pagamento",
                "state": "",
                "value": 7718,
                "avalist": "N",
                "company": "Da Cruz - EI",
                "currency": "R$",
                "registry": "B358",
                "pefin_type": "Pendência Financeira do Mercado",
                "subjudice": "",
                "credit_type": "CRED CARTAO",
                "company_code": "",
                "credit_model": "CT",
                "contract_number": "43450704629002",
                "occurrence_date": "23/12/1970",
                "occurrences_total": 8,
                "company_public_code": ""
              },
              {
                "name": "Detalhe pendência de pagamento",
                "state": "",
                "value": 6741,
                "avalist": "S",
                "company": "Nogueira Ribeiro - Ei S.A.",
                "currency": "R$",
                "registry": "B358",
                "pefin_type": "Pendência Financeira do Mercado",
                "subjudice": "",
                "credit_type": "CRED CARTAO",
                "company_code": "",
                "credit_model": "CT",
                "contract_number": "43450704629002",
                "occurrence_date": "31/01/1999",
                "occurrences_total": 2,
                "company_public_code": ""
              },
              {
                "city": "Alves do Campo",
                "name": "Detalhe protestos",
                "state": "MT",
                "value": 9347,
                "currency": "R$",
                "registry": "B362",
                "subjudice": "",
                "occurrence_date": "12/09/2007",
                "registry_office": "0001",
                "occurrences_total": 10
              },
              {
                "city": "Dias",
                "name": "Detalhe protestos",
                "state": "PE",
                "value": 3637,
                "currency": "R$",
                "registry": "B362",
                "subjudice": "",
                "occurrence_date": "15/06/1989",
                "registry_office": "0001",
                "occurrences_total": 6
              },
              {
                "city": "Ferreira",
                "name": "Detalhe protestos",
                "state": "PI",
                "value": 1737,
                "currency": "R$",
                "registry": "B362",
                "subjudice": "",
                "occurrence_date": "22/03/1994",
                "registry_office": "0001",
                "occurrences_total": 9
              },
              {
                "city": "Pires da Prata",
                "name": "Detalhe de cheques sem fundo",
                "state": "CE",
                "value": 3031,
                "alinea": "00",
                "bank_name": "Banco Bradesco S.A.",
                "currency": "R$",
                "registry": "B360",
                "bank_agency": "0036",
                "bank_account": "237                O0113689928",
                "check_number": "CCF-BB",
                "account_number": "",
                "type_of_account": "Individual",
                "occurrence_date": "20/02/1982",
                "occurrences_total": 3,
                "returned_check_quantity": 2
              }
            ],
            "historical_queries": [
              {
                "name": "Detalhe de registro de consultas",
                "value": 4272,
                "currency": "",
                "registry": "B354",
                "company_consult": "Moreira S.A. S.A.",
                "occurrence_date": "14/09/2020",
                "credit_type_consult": ""
              },
              {
                "name": "Detalhe de registro de consultas",
                "value": 8132,
                "currency": "",
                "registry": "B354",
                "company_consult": "Fogaça e Filhos",
                "occurrence_date": "04/10/2002",
                "credit_type_consult": ""
              },
              {
                "name": "Detalhe de registro de consultas",
                "value": 3440,
                "currency": "",
                "registry": "B354",
                "company_consult": "Nogueira E Filhos S.A.",
                "occurrence_date": "21/06/1982",
                "credit_type_consult": ""
              }
            ]
          },
          {
            "document": "052.007.540-46",
            "full_name": "João Guilherme Ribeiro",
            "date_birth": "2000-05-16",
            "incoming": 5070,
            "score": 483,
            "expenses": 5,
            "is_for_living": true,
            "total_debt": 64835,
            "delinquency_probability": 0.63,
            "is_allowable": true,
            "credit_restriction": [
              {
                "city": "Araújo",
                "name": "Detalhe dívida vencida",
                "type": "CP",
                "value": 8273,
                "currency": "R$",
                "registry": "B368",
                "debt_number": "0002018497196861",
                "occurrence_date": "10/12/2016",
                "occurrences_total": "00003",
                "partner_institution": "Aragão - ME"
              },
              {
                "city": "da Rocha",
                "name": "Detalhe dívida vencida",
                "type": "CP",
                "value": 2837,
                "currency": "R$",
                "registry": "B368",
                "debt_number": "0002018497196861",
                "occurrence_date": "09/03/1974",
                "occurrences_total": "00003",
                "partner_institution": "Duarte - Me S.A."
              },
              {
                "name": "Detalhe pendência de pagamento",
                "state": "",
                "value": 3422,
                "avalist": "N",
                "company": "Barbosa - ME",
                "currency": "R$",
                "registry": "B358",
                "pefin_type": "Pendência Financeira do Mercado",
                "subjudice": "",
                "credit_type": "CRED CARTAO",
                "company_code": "",
                "credit_model": "CT",
                "contract_number": "43450704629002",
                "occurrence_date": "02/04/2009",
                "occurrences_total": 2,
                "company_public_code": ""
              },
              {
                "name": "Detalhe pendência de pagamento",
                "state": "",
                "value": 8698,
                "avalist": "S",
                "company": "Da Luz E Filhos Ltda.",
                "currency": "R$",
                "registry": "B358",
                "pefin_type": "Pendência Financeira do Mercado",
                "subjudice": "",
                "credit_type": "CRED CARTAO",
                "company_code": "",
                "credit_model": "CT",
                "contract_number": "43450704629002",
                "occurrence_date": "21/04/1983",
                "occurrences_total": 3,
                "company_public_code": ""
              },
              {
                "name": "Detalhe pendência de pagamento",
                "state": "",
                "value": 3527,
                "avalist": "S",
                "company": "Alves - EI",
                "currency": "R$",
                "registry": "B358",
                "pefin_type": "Pendência Financeira do Mercado",
                "subjudice": "",
                "credit_type": "CRED CARTAO",
                "company_code": "",
                "credit_model": "CT",
                "contract_number": "43450704629002",
                "occurrence_date": "17/05/1985",
                "occurrences_total": 9,
                "company_public_code": ""
              },
              {
                "city": "Cavalcanti da Mata",
                "name": "Detalhe protestos",
                "state": "GO",
                "value": 7266,
                "currency": "R$",
                "registry": "B362",
                "subjudice": "",
                "occurrence_date": "22/11/1974",
                "registry_office": "0001",
                "occurrences_total": 7
              },
              {
                "city": "Silva",
                "name": "Detalhe protestos",
                "state": "PR",
                "value": 4926,
                "currency": "R$",
                "registry": "B362",
                "subjudice": "",
                "occurrence_date": "15/07/1981",
                "registry_office": "0001",
                "occurrences_total": 5
              },
              {
                "city": "Silveira da Mata",
                "name": "Detalhe protestos",
                "state": "GO",
                "value": 4542,
                "currency": "R$",
                "registry": "B362",
                "subjudice": "",
                "occurrence_date": "19/12/1982",
                "registry_office": "0001",
                "occurrences_total": 1
              },
              {
                "city": "Aragão",
                "name": "Detalhe protestos",
                "state": "RO",
                "value": 2060,
                "currency": "R$",
                "registry": "B362",
                "subjudice": "",
                "occurrence_date": "09/11/2007",
                "registry_office": "0001",
                "occurrences_total": 2
              },
              {
                "city": "Santos Grande",
                "name": "Detalhe de cheques sem fundo",
                "state": "MT",
                "value": 3395,
                "alinea": "00",
                "bank_name": "Banco Bradesco S.A.",
                "currency": "R$",
                "registry": "B360",
                "bank_agency": "0036",
                "bank_account": "237                O0113689928",
                "check_number": "CCF-BB",
                "account_number": "",
                "type_of_account": "Individual",
                "occurrence_date": "28/04/2011",
                "occurrences_total": 0,
                "returned_check_quantity": 3
              },
              {
                "city": "da Conceição Grande",
                "name": "Detalhe de cheques sem fundo",
                "state": "RN",
                "value": 168,
                "alinea": "00",
                "bank_name": "Banco Bradesco S.A.",
                "currency": "R$",
                "registry": "B360",
                "bank_agency": "0036",
                "bank_account": "237                O0113689928",
                "check_number": "CCF-BB",
                "account_number": "",
                "type_of_account": "Individual",
                "occurrence_date": "07/07/2005",
                "occurrences_total": 1,
                "returned_check_quantity": 1
              },
              {
                "city": "Ferreira do Oeste",
                "name": "Detalhe de cheques sem fundo",
                "state": "AM",
                "value": 6720,
                "alinea": "00",
                "bank_name": "Banco Bradesco S.A.",
                "currency": "R$",
                "registry": "B360",
                "bank_agency": "0036",
                "bank_account": "237                O0113689928",
                "check_number": "CCF-BB",
                "account_number": "",
                "type_of_account": "Individual",
                "occurrence_date": "24/11/1986",
                "occurrences_total": 2,
                "returned_check_quantity": 2
              },
              {
                "city": "Gonçalves",
                "name": "Detalhe de cheques sem fundo",
                "state": "RS",
                "value": 208,
                "alinea": "00",
                "bank_name": "Banco Bradesco S.A.",
                "currency": "R$",
                "registry": "B360",
                "bank_agency": "0036",
                "bank_account": "237                O0113689928",
                "check_number": "CCF-BB",
                "account_number": "",
                "type_of_account": "Individual",
                "occurrence_date": "15/07/1986",
                "occurrences_total": 2,
                "returned_check_quantity": 2
              },
              {
                "city": "Freitas",
                "name": "Detalhe de cheques sem fundo",
                "state": "MG",
                "value": 8793,
                "alinea": "00",
                "bank_name": "Banco Bradesco S.A.",
                "currency": "R$",
                "registry": "B360",
                "bank_agency": "0036",
                "bank_account": "237                O0113689928",
                "check_number": "CCF-BB",
                "account_number": "",
                "type_of_account": "Individual",
                "occurrence_date": "26/12/1982",
                "occurrences_total": 0,
                "returned_check_quantity": 1
              }
            ],
            "historical_queries": [
              {
                "name": "Detalhe de registro de consultas",
                "value": 3773,
                "currency": "",
                "registry": "B354",
                "company_consult": "Cardoso - Ei Ltda.",
                "occurrence_date": "04/04/1997",
                "credit_type_consult": ""
              }
            ]
          }
        ]
      ],
      "simulation": [
        {
          "bank_rate": {
            "mip": "18=0.000115,19=0.000115,20=0.000115,21=0.000115,22=0.000115,23=0.000115,24=0.000115,25=0.000115,26=0.000121,27=0.000121,28=0.000121,29=0.000121,30=0.000121,31=0.000178,32=0.000178,33=0.000178,34=0.000178,35=0.000178,36=0.000234,37=0.000234,38=0.000234,39=0.000234,40=0.000234,41=0.000318,42=0.000318,43=0.000318,44=0.000318,45=0.000318,46=0.000448,47=0.000448,48=0.000448,49=0.000448,50=0.000448,51=0.000751,52=0.000751,53=0.000751,54=0.000751,55=0.000751,56=0.001561,57=0.001561,58=0.001561,59=0.001561,60=0.001561,61=0.002781,62=0.002781,63=0.002781,64=0.002781,65=0.002781,66=0.003549,67=0.003549,68=0.003549,69=0.003549,70=0.003549,71=0.004707,72=0.004707,73=0.004707,74=0.004707,75=0.004707,76=0.004707,77=0.004707,78=0.004707,79=0.004707,80=0.004707",
            "dfi_insurance_rate": 0.000075,
            "sfh_interest_rate": 0.115,
            "sfi_interest_rate": 0.115,
            "sfi_charge": 25.0,
            "sfh_charge": 25.0,
            "ltv_new_property": 0.8,
            "max_installment_qty": 360.0,
            "max_income_commitment": 0.3,
            "bank_name": "FinCapital"
          },
          "loaned_percentage": 0.8,
          "monthly_income": 8000.0,
          "qty_installment": 360.0,
          "max_debt_capacity": 249862.1,
          "sec_loan_amount": 80000.18,
          "interest_rate": 0.115,
          "monthly_interest_rate": 0.00911,
          "final_installment": 790.52,
          "final_installment_desired": 790.52,
          "income_commitment": 0.09882,
          "income_commitment_desired": 0.09882,
          "required_income": 2635.07,
          "available_payment_term": 360.0,
          "max_sec_loan_available": 80000.18,
          "total_delta_fund_entry_inc": 0.04,
          "min_delta_fund_entry_inc": 0,
          "ltv": 0.8,
          "amortization_type": "Price",
          "desired_loan_approval": true
        }
      ],
      "models": {
        "score": "B",
        "proponent": {
          "score": "A"
        },
        "transaction": {
          "score": "E"
        }
      }
    }
  ],
  "properties": {
    "proponents": {
      "type": "array",
      "items": {
        "allOf": [
          {
            "$ref": "https://gitlab.com/RiskNow/test/-/raw/master/openapi/json-schema/bureau_normalize/output.json"
          }
        ]
      }
    },
    "simulation": {
      "type": "array",
      "items": {
        "allOf": [
          {
            "$ref": "https://gitlab.com/RiskNow/test/-/raw/master/openapi/json-schema/simulation/output.json"
          }
        ]
      }
    },
    "models": {
      "allOf": [
        {
          "$ref": "https://gitlab.com/RiskNow/test/-/raw/master/openapi/json-schema/models/output.json"
        }
      ]
    }
  },
  "required": ["proponents", "simulation", "models"]
}
