{
    "$schema": "http://json-schema.org/draft-07/schema",
    "$id": "https://risknow.ai/common/bank_account.json",
    "type": "object",
    "title": "The root schema",
    "description": "The root schema comprises the entire JSON document.",
    "default": {},
    "examples": [
        {
            "code": "001",
            "bank_id": 33,
            "status": "active"
        }
    ],
    "required": [
        "bank_id"
    ],
    "properties": {
        "code": {
            "$id": "#/properties/code",
            "type": "string",
            "title": "The code schema",
            "description": "Bank account code",
            "default": "",
            "examples": [
                "001"
            ]
        },
        "bank_id": {
            "$id": "#/properties/bank_id",
            "type": "integer",
            "title": "The bank_id schema",
            "description": "Bank id",
            "default": 0,
            "examples": [
                33
            ]
        },
        "status": {
            "$id": "#/properties/status",
            "type": "string",
            "title": "The status schema",
            "description": "Bank account status",
            "default": "",
            "examples": [
                "active"
            ]
        }
    },
    "additionalProperties": false
}