{
    "$schema": "http://json-schema.org/draft-07/schema",
    "$id": "https://risknow.ai/common/installment_type.json",
    "type": "object",
    "title": "The root schema",
    "description": "The root schema comprises the entire JSON document.",
    "default": {},
    "examples": [
        {
            "description": "Cobrado Mensalmente",
            "value": "Mensal"
        }
    ],
    "required": [
        "value"
    ],
    "properties": {
        "description": {
            "$id": "#/properties/description",
            "type": "string",
            "title": "The description schema",
            "description": "Installment type description",
            "default": "",
            "examples": [
                "Cobrado Mensalmente"
            ]
        },
        "value": {
            "$id": "#/properties/value",
            "type": "string",
            "title": "The value schema",
            "description": "Installment type value",
            "default": "",
            "examples": [
                "Mensal"
            ]
        }
    },
    "additionalProperties": false
}