{
  "$schema": "http://json-schema.org/draft-07/schema",
  "$id": "https://risknow.ai/etl/contract",
  "type": "object",
  "title": "The ETL Contract Schema",
  "description": "This formalized the ETL Contract Schema",
  "examples": [
    {
      "code": "i405",
      "contract_value": 341655.0,
      "value": "venda",
      "status": 4,
      "is_active": true,
      "status_chave": "Não Agendado",
      "value_ltv": 0.75,
      "date_financed": "2022-08-30"
    },
    {
      "code": "i405",
      "contract_value": 255113.8,
      "value": "venda",
      "is_active": true,
      "status_chave": "Não Agendado",
      "value_ltv": 0.72,
      "date_financed": "2022-08-30",
      "with_possession": false
    }
  ],
  "anyOf": [
    {
      "$ref": "https://gitlab.com/RiskNow/test/-/raw/master/openapi/json-schema/etl/common/conjuge.json"
    }
  ],
  "properties": {
    "contract_code": {
      "$id": "#/properties/contract_code",
      "type": "string",
      "title": "Contract Code",
      "description": "Unique identifier of contract",
      "examples": [
        "1578",
        "124"
      ]
    },
    "contract_unit": {
      "$id": "#/properties/contract_unit",
      "type": "string",
      "title": "Unit Contract",
      "description": "Unit estate linked to the contract",
      "examples": [
        "I100",
        "I405"
      ]
    },
    "contract_amortization_type": {
      "$id": "#/properties/contract_amortization_type",
      "type": "string",
      "description": "The Financing Type",
      "examples": ["PRICE", "SAC"]
    },
    "contract_value_original": {
      "$id": "#/properties/contract_value_original",
      "type": "number",
      "title": "Contract Value Original",
      "description": "Value Original of contract",
      "examples": [
        70633.15,
        333323.0
      ]
    },
    "contract_type": {
      "$id": "#/properties/contract_type",
      "type": "string",
      "title": "Contract Type",
      "description": "Type of contract",
      "examples": [
        "custas",
        "venda",
        "encargo",
        "divida"
      ]
    },
    "contract_status": {
      "$id": "#/properties/contract_status",
      "type": "number",
      "title": "Contract Status",
      "description": "Status of contract",
      "examples": [
        1,
        2,
        3
      ]
    },
    "contract_is_active": {
      "$id": "#/properties/contract_is_active",
      "type": "boolean",
      "title": "Contract Is Active",
      "description": "Contract is active for monitoring",
      "examples": [
        true,
        false
      ]
    },
    "contract_status_chave": {
      "$id": "#/properties/contract_status_chave",
      "type": "string",
      "title": "Contract Status Chave",
      "description": "Pre-key situation",
      "examples": [
        "Não Agendado",
        "Entrega"
      ]
    },
    "contract_value_ltv": {
      "$id": "#/properties/contract_value_ltv",
      "type": "number",
      "title": "Contract Value LTV",
      "description": "Contract loan to value",
      "examples": [
        0.8,
        0.78
      ]
    },
    "contract_date_signed": {
      "$id": "#/properties/contract_date_signed",
      "type": "string",
      "title": "Contract Date Signed",
      "description": "Date signed of contract",
      "examples": [
        "2020-08-30",
        "2020-07-22"
      ]
    },
    "contract_date_financed": {
      "$id": "#/properties/contract_date_financed",
      "type": "string",
      "title": "Contract Date Financed",
      "description": "Date financed of contract",
      "examples": [
        "2020-08-30",
        "2020-07-22"
      ]
    },
    "contract_date_sold": {
      "$id": "#/properties/contract_date_sold",
      "type": "string",
      "title": "Contract Date Sold",
      "description": "Date sold of contract",
      "examples": [
        "2020-08-30",
        "2020-07-22"
      ]
    },
    "contract_with_possession": {
      "$id": "#/properties/contract_with_possession",
      "type": "boolean",
      "title": "Contract With Possession",
      "examples": [
        true,
        false
      ]
    }
  }
}
