{
   "$schema": "http://json-schema.org/draft-07/schema",
   "$id": "https://risknow.ai/etl/payment",
   "type": "object",
   "title": "The ETL Distrato Schema",
   "description": "This formalized the ETL distrato Schema",
   "examples": [
      {
         "distrato_date_maturity": "2020-07-09",
         "distrato_date_dissolution": "2020-08-11"
      },
      {
         "distrato_date_maturity": "2020-07-09",
         "distrato_date_dissolution": "2020-08-11"
      }
   ],
   "properties": {
      "distrato_date_maturity": {
         "$id": "#/properties/distrato_date_maturity",
         "type": "string",
         "title": "Cancellation Date Maturity",
         "description": "Expiration date of the installment of cancellation",
         "examples": [
            "2020-08-22",
            "2020-01-01"
         ]
      },
      "distrato_date_dissolution": {
         "$id": "#/properties/distrato_date_dissolution",
         "type": "string",
         "title": "Cancellation Date Dissolution",
         "description": "Termination date of cancellation",
         "examples": [
            "2020-08-22",
            "2020-01-01"
         ]
      }
   }
}