{
  "$schema": "http://json-schema.org/draft-07/schema",
  "$id": "https://risknow.ai/etl/template/data.json",
  "type": "object",
  "title": "The ETL Template Data Schema",
  "description": "This formalized the ETL Template Data Schema",
  "properties": {
    "data": {
      "$id": "#/properties/data",
      "type": "object",
      "title": "The data schema",
      "description": "An explanation about the purpose of this instance.",
      "default": {},
      "examples": [
        {
          "has_delinquency": false,
          "id_prod": 11,
          "id_uat": 215
        }
      ],
      "required": [
        "id_prod",
        "id_uat"
      ],
      "properties": {
        "has_delinquency": {
          "$id": "#/properties/data/properties/has_delinquency",
          "type": "boolean",
          "title": "The has_delinquency schema",
          "description": "An explanation about the purpose of this instance.",
          "default": false
        },
        "id_prod": {
          "$id": "#/properties/data/properties/id_prod",
          "type": "integer",
          "title": "The id_prod schema",
          "description": "An explanation about the purpose of this instance."
        },
        "id_uat": {
          "$id": "#/properties/data/properties/id_uat",
          "type": "integer",
          "title": "The id_uat schema",
          "description": "An explanation about the purpose of this instance."
        }
      },
      "additionalProperties": false
    }
  }
}
