{
  "$schema": "http://json-schema.org/draft-07/schema",
  "$id": "https://risknow.ai/etl/input_receivables.json",
  "type": "object",
  "title": "The ETL Input Receivable Schema",
  "description": "This formalized the ETL Input Receivable Schema",
  "examples": [],
  "allOf": [
    {
      "$ref": "https://gitlab.com/RiskNow/test/-/raw/master/openapi/json-schema/etl/common/receivables.json"
    }
  ],
  "required": [
    "receivable_contract_type",
    "receivable_installment_type",
    "receivable_date_maturity",
    "receivable_present_value",
    "contract_code"
  ]
}
