{
   "$schema": "http://json-schema.org/draft-07/schema",
   "$id": "https://risknow.ai/etl/mapping/estate",
   "type": "object",
   "title": "The ETL Mapping Estate Schema",
   "description": "This formalized the ETL Mapping Estate Schema",
   "required": [
      "estate_code",
      "estate_name",
      "estate_schedule_code",
      "estate_typology_code"
   ],
   "properties": {
      "estate_code": {
         "$id": "#/properties/estate_code",
         "type": "object",
         "title": "Estate Code",
         "description": "Unique identifier of estate",
         "$ref": "https://gitlab.com/RiskNow/test/-/raw/master/openapi/json-schema/etl/mapping/column_property.json"
      },
      "estate_name": {
         "$id": "#/properties/estate_name",
         "type": "object",
         "title": "Estate Name",
         "description": "Name of estate",
         "$ref": "https://gitlab.com/RiskNow/test/-/raw/master/openapi/json-schema/etl/mapping/column_property.json"
      },
      "estate_schedule_code": {
         "$id": "#/properties/estate_schedule_code",
         "type": "object",
         "title": "Estate Schedule Code",
         "description": "Unique identifier of estate step",
         "$ref": "https://gitlab.com/RiskNow/test/-/raw/master/openapi/json-schema/etl/mapping/column_property.json"
      },
      "estate_schedule_name": {
         "$id": "#/properties/estate_schedule_name",
         "type": "object",
         "title": "Estate Schedule Name",
         "description": "Name of estate step",
         "$ref": "https://gitlab.com/RiskNow/test/-/raw/master/openapi/json-schema/etl/mapping/column_property.json"
      },
      "estate_schedule_phase": {
         "$id": "#/properties/estate_schedule_phase",
         "type": "object",
         "title": "Estate Schedule Phase",
         "description": "Phase of estate step",
         "$comment": "Stage of the enterprise stage (eg: schedule)",
         "$ref": "https://gitlab.com/RiskNow/test/-/raw/master/openapi/json-schema/etl/mapping/column_property.json"
      },
      "estate_schedule_date_start": {
         "$id": "#/properties/estate_schedule_date_start",
         "$ref": "https://gitlab.com/RiskNow/test/-/raw/master/openapi/json-schema/etl/mapping/column_property.json",
         "type": "object",
         "title": "Estate Schedule Date Start",
         "description": "Date start of estate step",
         "$ref": "https://gitlab.com/RiskNow/test/-/raw/master/openapi/json-schema/etl/mapping/column_property.json"
      },
      "estate_schedule_date_move": {
         "$id": "#/properties/estate_schedule_date_move",
         "type": "object",
         "title": "Estate Schedule Date Move",
         "description": "Date move of estate step",
         "$ref": "https://gitlab.com/RiskNow/test/-/raw/master/openapi/json-schema/etl/mapping/column_property.json"
      },
      "estate_schedule_date_enrollment": {
         "$id": "#/properties/estate_schedule_date_enrollment",
         "type": "object",
         "title": "Estate Schedule Date Enrollment",
         "description": "Date enrollment of estate step",
         "$ref": "https://gitlab.com/RiskNow/test/-/raw/master/openapi/json-schema/etl/mapping/column_property.json"
      },
      "estate_typology_qty_unit": {
         "$id": "#/properties/estate_typology_qty_unit",
         "type": "object",
         "title": "Estate Typology Unit Quantity",
         "description": "Quantity units of estate typology",
         "$ref": "https://gitlab.com/RiskNow/test/-/raw/master/openapi/json-schema/etl/mapping/column_property.json"
      },
      "estate_typology_qty_rooms": {
         "$id": "#/properties/estate_typology_qty_rooms",
         "type": "object",
         "title": "Estate Typology Room Quantity",
         "description": "Quantity rooms of estate typology",
         "$ref": "https://gitlab.com/RiskNow/test/-/raw/master/openapi/json-schema/etl/mapping/column_property.json"
      },
      "estate_typology_code": {
         "$id": "#/properties/estate_typology_code",
         "type": "object",
         "title": "Estate Typology Code",
         "description": "Unique identifier of estate typology",
         "$ref": "https://gitlab.com/RiskNow/test/-/raw/master/openapi/json-schema/etl/mapping/column_property.json"
      },
      "estate_typology_type": {
         "$id": "#/properties/estate_typology_type",
         "type": "object",
         "title": "Estate Typology Type",
         "description": "Type of estate typology",
         "$ref": "https://gitlab.com/RiskNow/test/-/raw/master/openapi/json-schema/etl/mapping/column_property.json"
      }
   },
   "additionalProperties": false
}