{
    "$schema": "http://json-schema.org/draft-07/schema",
    "$id": "http://example.com/example.json",
    "type": "array",
    "title": "The root schema",
    "description": "The root schema comprises the entire JSON document.",
    "default": [],
    "examples": [
        [
            {
                "bank_rate": {
                    "mip": "18=0.000115,19=0.000115,20=0.000115,21=0.000115,22=0.000115,23=0.000115,24=0.000115,25=0.000115,26=0.000121,27=0.000121,28=0.000121,29=0.000121,30=0.000121,31=0.000178,32=0.000178,33=0.000178,34=0.000178,35=0.000178,36=0.000234,37=0.000234,38=0.000234,39=0.000234,40=0.000234,41=0.000318,42=0.000318,43=0.000318,44=0.000318,45=0.000318,46=0.000448,47=0.000448,48=0.000448,49=0.000448,50=0.000448,51=0.000751,52=0.000751,53=0.000751,54=0.000751,55=0.000751,56=0.001561,57=0.001561,58=0.001561,59=0.001561,60=0.001561,61=0.002781,62=0.002781,63=0.002781,64=0.002781,65=0.002781,66=0.003549,67=0.003549,68=0.003549,69=0.003549,70=0.003549,71=0.004707,72=0.004707,73=0.004707,74=0.004707,75=0.004707,76=0.004707,77=0.004707,78=0.004707,79=0.004707,80=0.004707",
                    "dfi_insurance_rate": 0.000075,
                    "sfh_interest_rate": 0.115,
                    "sfi_interest_rate": 0.115,
                    "sfi_charge": 25.0,
                    "sfh_charge": 25.0,
                    "ltv_new_property": 0.8,
                    "max_installment_qty": 360.0,
                    "max_income_commitment": 0.3,
                    "bank_name": "FinCapital"
                },
                "loaned_percentage": 0.8,
                "monthly_income": 8000.0,
                "qty_installment": 360.0,
                "max_debt_capacity": 249862.1,
                "sec_loan_amount": 80000.18,
                "interest_rate": 0.115,
                "monthly_interest_rate": 0.00911,
                "final_installment": 790.52,
                "final_installment_desired": 790.52,
                "income_commitment": 0.09882,
                "income_commitment_desired": 0.09882,
                "required_income": 2635.07,
                "available_payment_term": 360.0,
                "max_sec_loan_available": 80000.18,
                "total_delta_fund_entry_inc": 0.04,
                "min_delta_fund_entry_inc": 0,
                "ltv": 0.8,
                "amortization_type": "SAC",
                "desired_loan_approval": true
            }
        ]
    ],
    "items": {
        "type": "object",
        "title": "The first anyOf schema",
        "description": "An explanation about the purpose of this instance.",
        "default": {},
        "required": [
            "bank_rate",
            "loaned_percentage",
            "monthly_income",
            "qty_installment",
            "max_debt_capacity",
            "sec_loan_amount",
            "interest_rate",
            "monthly_interest_rate",
            "final_installment",
            "final_installment_desired",
            "income_commitment",
            "income_commitment_desired",
            "required_income",
            "available_payment_term",
            "max_sec_loan_available",
            "total_delta_fund_entry_inc",
            "min_delta_fund_entry_inc",
            "ltv",
            "amortization_type",
            "desired_loan_approval"
        ],
        "properties": {
            "bank_rate": {
                "$ref": "https://gitlab.com/RiskNow/test/-/raw/master/openapi/json-schema/simulation/bank_rate.json"
            },
            "loaned_percentage": {
                "$id": "#/items/anyOf/0/properties/loaned_percentage",
                "type": "number",
                "title": "The loaned_percentage schema",
                "description": "An explanation about the purpose of this instance.",
                "default": 0.0,
                "examples": [
                    0.800000044
                ]
            },
            "monthly_income": {
                "$id": "#/items/anyOf/0/properties/monthly_income",
                "type": "number",
                "title": "The monthly_income schema",
                "description": "An explanation about the purpose of this instance.",
                "default": 0.0,
                "examples": [
                    18359.2
                ]
            },
            "qty_installment": {
                "$id": "#/items/anyOf/0/properties/qty_installment",
                "type": "number",
                "title": "The qty_installment schema",
                "description": "An explanation about the purpose of this instance.",
                "default": 0.0,
                "examples": [
                    420.0
                ]
            },
            "max_debt_capacity": {
                "$id": "#/items/anyOf/0/properties/max_debt_capacity",
                "type": "number",
                "title": "The max_debt_capacity schema",
                "description": "An explanation about the purpose of this instance.",
                "default": 0.0,
                "examples": [
                    746637.2242280361
                ]
            },
            "sec_loan_amount": {
                "$id": "#/items/anyOf/0/properties/sec_loan_amount",
                "type": "number",
                "title": "The sec_loan_amount schema",
                "description": "An explanation about the purpose of this instance.",
                "default": 0.0,
                "examples": [
                    800000.176
                ]
            },
            "interest_rate": {
                "$id": "#/items/anyOf/0/properties/interest_rate",
                "type": "number",
                "title": "The interest_rate schema",
                "description": "An explanation about the purpose of this instance.",
                "default": 0.0,
                "examples": [
                    0.085
                ]
            },
            "monthly_interest_rate": {
                "$id": "#/items/anyOf/0/properties/monthly_interest_rate",
                "type": "number",
                "title": "The monthly_interest_rate schema",
                "description": "An explanation about the purpose of this instance.",
                "default": 0.0,
                "examples": [
                    0.0068214934
                ]
            },
            "final_installment": {
                "$id": "#/items/anyOf/0/properties/final_installment",
                "type": "number",
                "title": "The final_installment schema",
                "description": "An explanation about the purpose of this instance.",
                "default": 0.0,
                "examples": [
                    5507.76
                ]
            },
            "final_installment_desired": {
                "$id": "#/items/anyOf/0/properties/final_installment_desired",
                "type": "number",
                "title": "The final_installment_desired schema",
                "description": "An explanation about the purpose of this instance.",
                "default": 0.0,
                "examples": [
                    5894.0430633944
                ]
            },
            "income_commitment": {
                "$id": "#/items/anyOf/0/properties/income_commitment",
                "type": "number",
                "title": "The income_commitment schema",
                "description": "An explanation about the purpose of this instance.",
                "default": 0.0,
                "examples": [
                    0.3
                ]
            },
            "income_commitment_desired": {
                "$id": "#/items/anyOf/0/properties/income_commitment_desired",
                "type": "number",
                "title": "The income_commitment_desired schema",
                "description": "An explanation about the purpose of this instance.",
                "default": 0.0,
                "examples": [
                    0.3210402993
                ]
            },
            "required_income": {
                "$id": "#/items/anyOf/0/properties/required_income",
                "type": "number",
                "title": "The required_income schema",
                "description": "An explanation about the purpose of this instance.",
                "default": 0.0,
                "examples": [
                    19646.8102113145
                ]
            },
            "available_payment_term": {
                "$id": "#/items/anyOf/0/properties/available_payment_term",
                "type": "number",
                "title": "The available_payment_term schema",
                "description": "An explanation about the purpose of this instance.",
                "default": 0.0,
                "examples": [
                    420.0
                ]
            },
            "max_sec_loan_available": {
                "$id": "#/items/anyOf/0/properties/max_sec_loan_available",
                "type": "number",
                "title": "The max_sec_loan_available schema",
                "description": "An explanation about the purpose of this instance.",
                "default": 0.0,
                "examples": [
                    746637.2242280361
                ]
            },
            "total_delta_fund_entry_inc": {
                "$id": "#/items/anyOf/0/properties/total_delta_fund_entry_inc",
                "type": "number",
                "title": "The total_delta_fund_entry_inc schema",
                "description": "An explanation about the purpose of this instance.",
                "default": 0.0,
                "examples": [
                    53362.9957719639
                ]
            },
            "min_delta_fund_entry_inc": {
                "$id": "#/items/anyOf/0/properties/min_delta_fund_entry_inc",
                "type": "number",
                "title": "The min_delta_fund_entry_inc schema",
                "description": "An explanation about the purpose of this instance.",
                "default": 0.0,
                "examples": [
                    0.044
                ]
            },
            "ltv": {
                "$id": "#/items/anyOf/0/properties/ltv",
                "type": "number",
                "title": "The ltv schema",
                "description": "An explanation about the purpose of this instance.",
                "default": 0.0,
                "examples": [
                    0.74663706
                ]
            },
            "amortization_type": {
                "$id": "#/items/anyOf/0/properties/amortization_type",
                "type": "string",
                "title": "The amortization_type schema",
                "description": "An explanation about the purpose of this instance.",
                "default": "SAC",
                "examples": [
                    "SAC"
                ]
            },
            "desired_loan_approval": {
                "$id": "#/items/anyOf/0/properties/desired_loan_approval",
                "type": "boolean",
                "title": "The desired_loan_approval schema",
                "description": "An explanation about the purpose of this instance.",
                "default": false,
                "examples": [
                    false
                ]
            }
        }
    }
}